SalesMM,FID,CustType,AgeGroup,MID,Gender,Count,RID,REGIONCODE   ,SalesCount,SalesAmt,REGIONLABEL      ,SalesYYYY
2      ,M2 ,General ,20-30   ,M2 ,Male  ,1    ,R2 ,Dobong-gu    ,78        ,22591   ,Ulsan            ,2015
5      ,M2 ,General ,40-50   ,M4 ,Female,1    ,R5 ,Dobong-gu    ,33        ,13267   ,Ulsan            ,2015
5      ,M2 ,VIP     ,20-30   ,M2 ,Male  ,1    ,R4 ,Dobong-gu    ,43        ,30169   ,Ulsan            ,2016
8      ,M1 ,VVIP    ,20-30   ,M3 ,Male  ,1    ,R3 ,Dobong-gu    ,19        ,82068   ,Ulsan            ,2015
11     ,M4 ,New     ,~20     ,M3 ,Male  ,1    ,R4 ,Dobong-gu    ,54        ,65739   ,Ulsan            ,2015
3      ,M4 ,General ,50~     ,M4 ,Female,1    ,R2 ,Dobong-gu    ,46        ,33525   ,Ulsan            ,2016
9      ,M3 ,VVIP    ,40-50   ,M2 ,Male  ,1    ,R5 ,Dobong-gu    ,85        ,24412   ,Ulsan            ,2016
11     ,M4 ,General ,~20     ,M4 ,Male  ,1    ,R4 ,Dobong-gu    ,80        ,96622   ,Ulsan            ,2015
1      ,M2 ,VVIP    ,30-40   ,M2 ,Male  ,1    ,R5 ,Dobong-gu    ,42        ,58846   ,Ulsan            ,2016
10     ,M1 ,VIP     ,20-30   ,M1 ,Female,1    ,R2 ,Dobong-gu    ,52        ,94958   ,Ulsan            ,2015
6      ,M4 ,General ,40-50   ,M2 ,Male  ,1    ,R4 ,Dobong-gu    ,43        ,79062   ,Ulsan            ,2015
9      ,M3 ,Dorment ,50~     ,M3 ,Female,1    ,R4 ,Dobong-gu    ,94        ,53219   ,Ulsan            ,2015
2      ,M1 ,VIP     ,20-30   ,M2 ,Male  ,1    ,R4 ,Dobong-gu    ,83        ,44994   ,Ulsan            ,2015
4      ,M3 ,General ,20-30   ,M3 ,Male  ,1    ,R3 ,Dobong-gu    ,36        ,6275    ,Ulsan            ,2015
2      ,M4 ,VVIP    ,20-30   ,M1 ,Female,1    ,R5 ,Dobong-gu    ,45        ,83599   ,Ulsan            ,2015
10     ,M5 ,Dorment ,40-50   ,M2 ,Male  ,1    ,R3 ,Dobong-gu    ,10        ,59177   ,Ulsan            ,2016
11     ,M1 ,General ,50~     ,M5 ,Male  ,1    ,R1 ,Dobong-gu    ,47        ,68929   ,Ulsan            ,2015
10     ,M3 ,New     ,30-40   ,M4 ,Male  ,1    ,R5 ,Dobong-gu    ,16        ,99861   ,Ulsan            ,2016
9      ,M2 ,General ,20-30   ,M4 ,Female,1    ,R2 ,Dobong-gu    ,27        ,64195   ,Ulsan            ,2015
10     ,M2 ,VVIP    ,20-30   ,M2 ,Female,1    ,R5 ,Dobong-gu    ,100       ,96771   ,Ulsan            ,2016
2      ,M1 ,New     ,20-30   ,M4 ,Female,1    ,R3 ,Dobong-gu    ,89        ,5813    ,Ulsan            ,2015
5      ,M2 ,General ,30-40   ,M4 ,Male  ,1    ,R4 ,Dobong-gu    ,51        ,70198   ,Ulsan            ,2016
8      ,M3 ,Dorment ,20-30   ,M3 ,Female,1    ,R4 ,Dobong-gu    ,72        ,58933   ,Ulsan            ,2015
3      ,M3 ,Dorment ,20-30   ,M4 ,Female,1    ,R4 ,Dobong-gu    ,60        ,37602   ,Ulsan            ,2016
9      ,M5 ,VIP     ,50~     ,M5 ,Male  ,1    ,R5 ,Dobong-gu    ,54        ,20385   ,Ulsan            ,2015
3      ,M5 ,New     ,30-40   ,M2 ,Female,1    ,R3 ,Dobong-gu    ,90        ,56608   ,Ulsan            ,2016
6      ,M4 ,General ,~20     ,M2 ,Male  ,1    ,R5 ,Dobong-gu    ,51        ,35429   ,Ulsan            ,2016
2      ,M4 ,New     ,50~     ,M5 ,Male  ,1    ,R2 ,Dobong-gu    ,29        ,25977   ,Ulsan            ,2015
8      ,M1 ,VIP     ,~20     ,M3 ,Female,1    ,R5 ,Dobong-gu    ,15        ,84766   ,Ulsan            ,2015
3      ,M5 ,New     ,20-30   ,M1 ,Female,1    ,R1 ,Dongdaemun-gu,61        ,85262   ,Jeju             ,2015
3      ,M5 ,VIP     ,50~     ,M2 ,Female,1    ,R5 ,Dongdaemun-gu,66        ,27054   ,Jeju             ,2016
5      ,M4 ,General ,30-40   ,M4 ,Female,1    ,R2 ,Dongdaemun-gu,14        ,37290   ,Jeju             ,2016
12     ,M3 ,New     ,30-40   ,M1 ,Female,1    ,R3 ,Dongdaemun-gu,19        ,4794    ,Jeju             ,2015
2      ,M4 ,Dorment ,~20     ,M2 ,Male  ,1    ,R2 ,Dongdaemun-gu,54        ,76726   ,Jeju             ,2015
3      ,M2 ,VVIP    ,20-30   ,M3 ,Female,1    ,R2 ,Dongdaemun-gu,74        ,22048   ,Jeju             ,2015
8      ,M5 ,New     ,50~     ,M2 ,Male  ,1    ,R4 ,Dongdaemun-gu,60        ,99367   ,Jeju             ,2016
11     ,M5 ,Dorment ,50~     ,M5 ,Male  ,1    ,R4 ,Dongdaemun-gu,68        ,5068    ,Jeju             ,2016
6      ,M4 ,VVIP    ,30-40   ,M5 ,Female,1    ,R5 ,Dongdaemun-gu,27        ,71348   ,Jeju             ,2016
11     ,M2 ,General ,30-40   ,M2 ,Female,1    ,R3 ,Dongdaemun-gu,46        ,68710   ,Jeju             ,2016
8      ,M4 ,VIP     ,20-30   ,M1 ,Male  ,1    ,R5 ,Dongdaemun-gu,44        ,87095   ,Jeju             ,2016
4      ,M3 ,VVIP    ,30-40   ,M1 ,Male  ,1    ,R3 ,Dongdaemun-gu,67        ,29132   ,Jeju             ,2016
9      ,M1 ,VVIP    ,20-30   ,M3 ,Male  ,1    ,R4 ,Dongdaemun-gu,55        ,36454   ,Jeju             ,2015
6      ,M1 ,VIP     ,40-50   ,M1 ,Male  ,1    ,R3 ,Dongdaemun-gu,51        ,68188   ,Jeju             ,2015
8      ,M2 ,Dorment ,30-40   ,M3 ,Female,1    ,R4 ,Dongdaemun-gu,35        ,2738    ,Jeju             ,2016
10     ,M1 ,VIP     ,~20     ,M5 ,Male  ,1    ,R5 ,Dongdaemun-gu,21        ,29541   ,Jeju             ,2016
7      ,M4 ,Dorment ,20-30   ,M5 ,Male  ,1    ,R1 ,Dongdaemun-gu,32        ,15535   ,Jeju             ,2015
9      ,M3 ,General ,~20     ,M3 ,Male  ,1    ,R3 ,Dongdaemun-gu,100       ,9253    ,Jeju             ,2016
8      ,M2 ,General ,40-50   ,M1 ,Female,1    ,R5 ,Dongdaemun-gu,1         ,51212   ,Jeju             ,2016
6      ,M5 ,New     ,~20     ,M2 ,Female,1    ,R2 ,Dongdaemun-gu,87        ,17798   ,Jeju             ,2016
4      ,M4 ,Dorment ,40-50   ,M1 ,Female,1    ,R3 ,Dongdaemun-gu,81        ,11875   ,Jeju             ,2016
5      ,M3 ,VIP     ,~20     ,M4 ,Male  ,1    ,R4 ,Dongdaemun-gu,37        ,52613   ,Jeju             ,2016
8      ,M3 ,General ,20-30   ,M5 ,Male  ,1    ,R5 ,Dongdaemun-gu,43        ,30637   ,Jeju             ,2015
3      ,M3 ,Dorment ,50~     ,M5 ,Female,1    ,R5 ,Dongdaemun-gu,18        ,2081    ,Jeju             ,2015
1      ,M3 ,New     ,30-40   ,M5 ,Female,1    ,R2 ,Dongdaemun-gu,94        ,61914   ,Jeju             ,2016
12     ,M3 ,General ,30-40   ,M5 ,Male  ,1    ,R3 ,Dongdaemun-gu,40        ,3106    ,Jeju             ,2015
4      ,M2 ,VIP     ,~20     ,M2 ,Female,1    ,R2 ,Dongdaemun-gu,96        ,6322    ,Jeju             ,2016
10     ,M4 ,New     ,40-50   ,M2 ,Female,1    ,R3 ,Dongdaemun-gu,59        ,56935   ,Jeju             ,2016
7      ,M3 ,VVIP    ,~20     ,M3 ,Male  ,1    ,R4 ,Dongdaemun-gu,92        ,59749   ,Jeju             ,2015
10     ,M4 ,VIP     ,~20     ,M1 ,Female,1    ,R4 ,Dongdaemun-gu,100       ,68579   ,Jeju             ,2016
8      ,M4 ,New     ,40-50   ,M3 ,Female,1    ,R3 ,Dongjak-gu   ,94        ,52204   ,South Gyeongsang ,2015
12     ,M2 ,General ,~20     ,M1 ,Female,1    ,R3 ,Dongjak-gu   ,22        ,41275   ,South Gyeongsang ,2015
11     ,M5 ,VIP     ,50~     ,M5 ,Male  ,1    ,R4 ,Dongjak-gu   ,83        ,15410   ,South Gyeongsang ,2015
12     ,M2 ,New     ,40-50   ,M1 ,Female,1    ,R5 ,Dongjak-gu   ,17        ,62187   ,South Gyeongsang ,2015
12     ,M1 ,New     ,~20     ,M3 ,Female,1    ,R2 ,Dongjak-gu   ,29        ,5569    ,South Gyeongsang ,2016
4      ,M5 ,Dorment ,20-30   ,M3 ,Female,1    ,R3 ,Dongjak-gu   ,48        ,42091   ,South Gyeongsang ,2016
2      ,M1 ,VIP     ,30-40   ,M3 ,Male  ,1    ,R4 ,Dongjak-gu   ,68        ,87101   ,South Gyeongsang ,2015
6      ,M3 ,VIP     ,~20     ,M2 ,Female,1    ,R1 ,Dongjak-gu   ,50        ,93619   ,South Gyeongsang ,2015
9      ,M2 ,Dorment ,50~     ,M3 ,Female,1    ,R4 ,Dongjak-gu   ,33        ,13054   ,South Gyeongsang ,2016
3      ,M4 ,VVIP    ,~20     ,M4 ,Female,1    ,R3 ,Dongjak-gu   ,69        ,68515   ,South Gyeongsang ,2016
7      ,M3 ,General ,30-40   ,M1 ,Male  ,1    ,R4 ,Dongjak-gu   ,26        ,96660   ,South Gyeongsang ,2015
8      ,M4 ,VVIP    ,40-50   ,M5 ,Male  ,1    ,R3 ,Dongjak-gu   ,35        ,35955   ,South Gyeongsang ,2015
6      ,M5 ,New     ,20-30   ,M2 ,Male  ,1    ,R5 ,Dongjak-gu   ,33        ,74369   ,South Gyeongsang ,2016
3      ,M5 ,New     ,50~     ,M1 ,Female,1    ,R2 ,Dongjak-gu   ,89        ,33043   ,South Gyeongsang ,2016
3      ,M2 ,New     ,40-50   ,M1 ,Female,1    ,R5 ,Dongjak-gu   ,65        ,6270    ,South Gyeongsang ,2015
5      ,M1 ,Dorment ,~20     ,M4 ,Male  ,1    ,R3 ,Dongjak-gu   ,89        ,28789   ,South Gyeongsang ,2016
10     ,M2 ,General ,50~     ,M2 ,Male  ,1    ,R1 ,Dongjak-gu   ,50        ,25562   ,South Gyeongsang ,2015
1      ,M1 ,General ,20-30   ,M3 ,Female,1    ,R5 ,Dongjak-gu   ,42        ,11634   ,South Gyeongsang ,2015
8      ,M1 ,VVIP    ,50~     ,M4 ,Female,1    ,R2 ,Dongjak-gu   ,100       ,66731   ,South Gyeongsang ,2015
1      ,M2 ,New     ,50~     ,M2 ,Male  ,1    ,R3 ,Dongjak-gu   ,3         ,92693   ,South Gyeongsang ,2016
12     ,M1 ,Dorment ,30-40   ,M3 ,Female,1    ,R2 ,Dongjak-gu   ,29        ,81688   ,South Gyeongsang ,2016
11     ,M3 ,VIP     ,50~     ,M2 ,Male  ,1    ,R4 ,Dongjak-gu   ,98        ,75656   ,South Gyeongsang ,2015
1      ,M4 ,VIP     ,50~     ,M3 ,Male  ,1    ,R1 ,Dongjak-gu   ,55        ,48475   ,South Gyeongsang ,2016
3      ,M1 ,VVIP    ,~20     ,M1 ,Male  ,1    ,R1 ,Dongjak-gu   ,76        ,50669   ,South Gyeongsang ,2015
6      ,M4 ,General ,50~     ,M4 ,Female,1    ,R4 ,Dongjak-gu   ,56        ,43662   ,South Gyeongsang ,2016
12     ,M4 ,VIP     ,40-50   ,M1 ,Male  ,1    ,R2 ,Dongjak-gu   ,93        ,17427   ,South Gyeongsang ,2016
5      ,M3 ,General ,50~     ,M2 ,Male  ,1    ,R4 ,Dongjak-gu   ,60        ,85924   ,South Gyeongsang ,2015
7      ,M1 ,Dorment ,~20     ,M3 ,Female,1    ,R1 ,Dongjak-gu   ,95        ,10845   ,South Gyeongsang ,2016
5      ,M3 ,Dorment ,30-40   ,M5 ,Male  ,1    ,R1 ,Dongjak-gu   ,21        ,48463   ,South Gyeongsang ,2016
6      ,M1 ,New     ,50~     ,M4 ,Female,1    ,R1 ,Dongjak-gu   ,22        ,81732   ,South Gyeongsang ,2015
5      ,M3 ,Dorment ,40-50   ,M2 ,Female,1    ,R3 ,KR-45        ,96        ,78742   ,North Jeolla     ,2016
8      ,M1 ,General ,~20     ,M3 ,Male  ,1    ,R3 ,KR-45        ,32        ,96141   ,North Jeolla     ,2016
9      ,M5 ,General ,20-30   ,M4 ,Female,1    ,R2 ,KR-45        ,62        ,87270   ,North Jeolla     ,2016
10     ,M4 ,VIP     ,30-40   ,M2 ,Female,1    ,R2 ,KR-45        ,2         ,9750    ,North Jeolla     ,2015
3      ,M5 ,VVIP    ,30-40   ,M2 ,Female,1    ,R2 ,KR-45        ,100       ,44367   ,North Jeolla     ,2016
7      ,M2 ,VVIP    ,20-30   ,M2 ,Female,1    ,R3 ,KR-45        ,23        ,41405   ,North Jeolla     ,2016
12     ,M2 ,New     ,50~     ,M2 ,Female,1    ,R1 ,KR-45        ,29        ,94149   ,North Jeolla     ,2016
2      ,M2 ,New     ,40-50   ,M5 ,Female,1    ,R1 ,KR-45        ,20        ,66395   ,North Jeolla     ,2015
11     ,M3 ,VIP     ,50~     ,M2 ,Female,1    ,R3 ,KR-45        ,42        ,14058   ,North Jeolla     ,2015
9      ,M4 ,New     ,40-50   ,M2 ,Male  ,1    ,R1 ,KR-45        ,61        ,27365   ,North Jeolla     ,2015
4      ,M4 ,Dorment ,20-30   ,M5 ,Male  ,1    ,R4 ,KR-45        ,85        ,63980   ,North Jeolla     ,2015
2      ,M1 ,New     ,40-50   ,M4 ,Male  ,1    ,R2 ,KR-45        ,38        ,47211   ,North Jeolla     ,2016
10     ,M1 ,New     ,30-40   ,M2 ,Male  ,1    ,R4 ,KR-45        ,93        ,28495   ,North Jeolla     ,2016
9      ,M1 ,Dorment ,40-50   ,M1 ,Female,1    ,R1 ,KR-45        ,86        ,85957   ,North Jeolla     ,2015
1      ,M2 ,Dorment ,50~     ,M2 ,Male  ,1    ,R2 ,KR-45        ,51        ,92466   ,North Jeolla     ,2015
5      ,M5 ,General ,~20     ,M3 ,Male  ,1    ,R5 ,KR-45        ,2         ,54422   ,North Jeolla     ,2015
2      ,M1 ,VIP     ,30-40   ,M4 ,Female,1    ,R5 ,KR-45        ,13        ,5535    ,North Jeolla     ,2015
10     ,M5 ,VIP     ,~20     ,M1 ,Female,1    ,R3 ,KR-45        ,100       ,60304   ,North Jeolla     ,2015
7      ,M5 ,General ,20-30   ,M4 ,Female,1    ,R3 ,KR-45        ,60        ,92895   ,North Jeolla     ,2015
4      ,M2 ,New     ,50~     ,M3 ,Female,1    ,R3 ,KR-45        ,44        ,85568   ,North Jeolla     ,2016
9      ,M3 ,VVIP    ,30-40   ,M2 ,Male  ,1    ,R2 ,KR-45        ,10        ,58940   ,North Jeolla     ,2016
1      ,M4 ,Dorment ,~20     ,M3 ,Female,1    ,R3 ,KR-45        ,62        ,94512   ,North Jeolla     ,2015
4      ,M5 ,Dorment ,40-50   ,M3 ,Female,1    ,R5 ,KR-45        ,57        ,79144   ,North Jeolla     ,2016
11     ,M2 ,General ,~20     ,M4 ,Female,1    ,R4 ,KR-45        ,37        ,19890   ,North Jeolla     ,2016
11     ,M1 ,General ,50~     ,M4 ,Female,1    ,R2 ,KR-45        ,59        ,84014   ,North Jeolla     ,2016
12     ,M5 ,New     ,50~     ,M5 ,Female,1    ,R5 ,KR-45        ,79        ,64265   ,North Jeolla     ,2016
9      ,M2 ,General ,~20     ,M5 ,Female,1    ,R3 ,KR-45        ,50        ,3726    ,North Jeolla     ,2016
5      ,M4 ,Dorment ,40-50   ,M1 ,Male  ,1    ,R1 ,KR-45        ,28        ,8681    ,North Jeolla     ,2015
6      ,M5 ,VVIP    ,20-30   ,M3 ,Male  ,1    ,R1 ,KR-45        ,63        ,71686   ,North Jeolla     ,2015
5      ,M4 ,New     ,50~     ,M4 ,Female,1    ,R3 ,KR-45        ,4         ,15697   ,North Jeolla     ,2016
7      ,M2 ,VVIP    ,50~     ,M3 ,Female,1    ,R3 ,KR-44        ,97        ,8086    ,South Chungcheong,2016
5      ,M5 ,General ,50~     ,M5 ,Male  ,1    ,R4 ,KR-44        ,9         ,19063   ,South Chungcheong,2016
8      ,M2 ,General ,40-50   ,M5 ,Male  ,1    ,R4 ,KR-44        ,28        ,54295   ,South Chungcheong,2015
2      ,M4 ,General ,40-50   ,M5 ,Female,1    ,R1 ,KR-44        ,33        ,69199   ,South Chungcheong,2016
11     ,M3 ,Dorment ,30-40   ,M4 ,Male  ,1    ,R1 ,KR-44        ,28        ,14934   ,South Chungcheong,2016
3      ,M4 ,VVIP    ,50~     ,M5 ,Male  ,1    ,R2 ,KR-44        ,64        ,96363   ,South Chungcheong,2015
9      ,M1 ,VVIP    ,30-40   ,M5 ,Female,1    ,R3 ,KR-44        ,97        ,27188   ,South Chungcheong,2015
2      ,M3 ,New     ,50~     ,M5 ,Female,1    ,R3 ,KR-44        ,18        ,92289   ,South Chungcheong,2015
12     ,M5 ,Dorment ,40-50   ,M5 ,Male  ,1    ,R5 ,KR-44        ,49        ,18179   ,South Chungcheong,2015
2      ,M5 ,VVIP    ,40-50   ,M3 ,Male  ,1    ,R4 ,KR-44        ,54        ,82007   ,South Chungcheong,2016
1      ,M2 ,General ,30-40   ,M1 ,Female,1    ,R3 ,KR-44        ,76        ,77830   ,South Chungcheong,2016
8      ,M4 ,New     ,20-30   ,M5 ,Male  ,1    ,R4 ,KR-44        ,46        ,73848   ,South Chungcheong,2015
4      ,M3 ,Dorment ,~20     ,M2 ,Female,1    ,R5 ,KR-44        ,100       ,45636   ,South Chungcheong,2015
6      ,M4 ,New     ,~20     ,M3 ,Female,1    ,R4 ,KR-44        ,86        ,32780   ,South Chungcheong,2015
6      ,M5 ,New     ,20-30   ,M3 ,Male  ,1    ,R1 ,KR-44        ,46        ,77319   ,South Chungcheong,2015
9      ,M1 ,New     ,40-50   ,M3 ,Male  ,1    ,R4 ,KR-44        ,77        ,22924   ,South Chungcheong,2016
8      ,M5 ,VIP     ,~20     ,M3 ,Male  ,1    ,R1 ,KR-44        ,36        ,56790   ,South Chungcheong,2016
1      ,M1 ,New     ,30-40   ,M4 ,Female,1    ,R4 ,KR-44        ,1         ,61145   ,South Chungcheong,2016
11     ,M2 ,New     ,20-30   ,M2 ,Male  ,1    ,R1 ,KR-44        ,91        ,24518   ,South Chungcheong,2015
4      ,M3 ,VIP     ,20-30   ,M5 ,Male  ,1    ,R1 ,KR-44        ,39        ,85051   ,South Chungcheong,2015
3      ,M5 ,General ,30-40   ,M5 ,Female,1    ,R5 ,KR-44        ,31        ,48180   ,South Chungcheong,2015
9      ,M3 ,VVIP    ,30-40   ,M1 ,Female,1    ,R5 ,KR-44        ,46        ,77208   ,South Chungcheong,2016
4      ,M5 ,VIP     ,50~     ,M1 ,Male  ,1    ,R4 ,KR-44        ,63        ,34050   ,South Chungcheong,2015
2      ,M5 ,Dorment ,30-40   ,M2 ,Female,1    ,R1 ,KR-44        ,9         ,34035   ,South Chungcheong,2016
12     ,M4 ,Dorment ,~20     ,M2 ,Male  ,1    ,R4 ,KR-44        ,58        ,78344   ,South Chungcheong,2015
6      ,M1 ,VVIP    ,20-30   ,M4 ,Female,1    ,R5 ,KR-44        ,53        ,92379   ,South Chungcheong,2016
5      ,M2 ,Dorment ,50~     ,M1 ,Female,1    ,R2 ,KR-44        ,44        ,86291   ,South Chungcheong,2015
7      ,M3 ,New     ,30-40   ,M3 ,Male  ,1    ,R5 ,KR-44        ,45        ,75523   ,South Chungcheong,2015
11     ,M5 ,VVIP    ,20-30   ,M4 ,Male  ,1    ,R4 ,KR-44        ,61        ,66333   ,South Chungcheong,2016
4      ,M4 ,General ,40-50   ,M3 ,Female,1    ,R4 ,KR-44        ,78        ,70738   ,South Chungcheong,2016
11     ,M2 ,Dorment ,40-50   ,M5 ,Male  ,1    ,R4 ,KR-47        ,31        ,26221   ,North Gyeongsang ,2016
8      ,M1 ,VIP     ,40-50   ,M5 ,Male  ,1    ,R3 ,KR-47        ,17        ,89535   ,North Gyeongsang ,2015
9      ,M4 ,General ,40-50   ,M1 ,Female,1    ,R2 ,KR-47        ,80        ,21477   ,North Gyeongsang ,2016
2      ,M2 ,General ,20-30   ,M1 ,Female,1    ,R5 ,KR-47        ,78        ,70954   ,North Gyeongsang ,2016
5      ,M4 ,Dorment ,30-40   ,M1 ,Male  ,1    ,R3 ,KR-47        ,39        ,46811   ,North Gyeongsang ,2015
4      ,M2 ,VVIP    ,20-30   ,M1 ,Male  ,1    ,R1 ,KR-47        ,78        ,21306   ,North Gyeongsang ,2015
4      ,M1 ,Dorment ,40-50   ,M1 ,Female,1    ,R2 ,KR-47        ,61        ,36031   ,North Gyeongsang ,2015
10     ,M2 ,VIP     ,20-30   ,M4 ,Male  ,1    ,R3 ,KR-47        ,49        ,92020   ,North Gyeongsang ,2015
1      ,M4 ,VIP     ,20-30   ,M5 ,Female,1    ,R3 ,KR-47        ,6         ,8827    ,North Gyeongsang ,2015
12     ,M4 ,VVIP    ,30-40   ,M3 ,Male  ,1    ,R5 ,KR-47        ,88        ,99061   ,North Gyeongsang ,2016
9      ,M5 ,New     ,50~     ,M4 ,Male  ,1    ,R3 ,KR-47        ,71        ,23369   ,North Gyeongsang ,2016
2      ,M4 ,New     ,20-30   ,M3 ,Female,1    ,R5 ,KR-47        ,74        ,21364   ,North Gyeongsang ,2016
4      ,M2 ,New     ,50~     ,M5 ,Female,1    ,R5 ,KR-47        ,95        ,60604   ,North Gyeongsang ,2015
11     ,M4 ,VVIP    ,~20     ,M3 ,Female,1    ,R2 ,KR-47        ,44        ,45293   ,North Gyeongsang ,2016
9      ,M3 ,Dorment ,40-50   ,M1 ,Male  ,1    ,R4 ,KR-47        ,1         ,14057   ,North Gyeongsang ,2016
4      ,M1 ,General ,30-40   ,M3 ,Male  ,1    ,R2 ,KR-47        ,60        ,64110   ,North Gyeongsang ,2016
12     ,M1 ,General ,40-50   ,M4 ,Male  ,1    ,R4 ,KR-47        ,88        ,52180   ,North Gyeongsang ,2015
12     ,M3 ,Dorment ,~20     ,M4 ,Male  ,1    ,R5 ,KR-47        ,11        ,36084   ,North Gyeongsang ,2016
8      ,M2 ,VIP     ,20-30   ,M2 ,Female,1    ,R4 ,KR-47        ,33        ,21994   ,North Gyeongsang ,2015
6      ,M5 ,Dorment ,20-30   ,M4 ,Male  ,1    ,R2 ,KR-47        ,91        ,83038   ,North Gyeongsang ,2016
5      ,M1 ,VVIP    ,50~     ,M4 ,Female,1    ,R5 ,KR-47        ,56        ,40059   ,North Gyeongsang ,2015
9      ,M2 ,General ,~20     ,M1 ,Female,1    ,R3 ,KR-47        ,18        ,2238    ,North Gyeongsang ,2015
2      ,M5 ,New     ,30-40   ,M3 ,Female,1    ,R3 ,KR-47        ,38        ,40818   ,North Gyeongsang ,2015
3      ,M2 ,VVIP    ,50~     ,M2 ,Male  ,1    ,R3 ,KR-47        ,62        ,16614   ,North Gyeongsang ,2016
2      ,M5 ,New     ,30-40   ,M3 ,Male  ,1    ,R2 ,KR-47        ,47        ,32108   ,North Gyeongsang ,2015
9      ,M4 ,New     ,30-40   ,M4 ,Male  ,1    ,R5 ,KR-47        ,77        ,20785   ,North Gyeongsang ,2015
9      ,M4 ,General ,20-30   ,M5 ,Female,1    ,R1 ,KR-47        ,30        ,28957   ,North Gyeongsang ,2016
1      ,M4 ,General ,50~     ,M4 ,Male  ,1    ,R3 ,KR-47        ,46        ,37045   ,North Gyeongsang ,2015
10     ,M4 ,Dorment ,40-50   ,M5 ,Female,1    ,R5 ,KR-47        ,13        ,63085   ,North Gyeongsang ,2016
6      ,M1 ,New     ,50~     ,M4 ,Female,1    ,R1 ,KR-47        ,84        ,89789   ,North Gyeongsang ,2016
1      ,M3 ,Dorment ,40-50   ,M3 ,Female,1    ,R5 ,KR-46        ,24        ,6103    ,South Jeolla     ,2016
12     ,M5 ,VVIP    ,20-30   ,M1 ,Male  ,1    ,R5 ,KR-46        ,80        ,38620   ,South Jeolla     ,2016
7      ,M5 ,General ,20-30   ,M4 ,Female,1    ,R3 ,KR-46        ,5         ,68794   ,South Jeolla     ,2016
12     ,M5 ,VIP     ,20-30   ,M5 ,Female,1    ,R3 ,KR-46        ,55        ,37487   ,South Jeolla     ,2015
2      ,M3 ,General ,~20     ,M3 ,Male  ,1    ,R5 ,KR-46        ,29        ,47799   ,South Jeolla     ,2015
11     ,M2 ,VIP     ,30-40   ,M5 ,Female,1    ,R5 ,KR-46        ,95        ,50713   ,South Jeolla     ,2015
7      ,M5 ,VIP     ,~20     ,M1 ,Female,1    ,R3 ,KR-46        ,97        ,37048   ,South Jeolla     ,2015
10     ,M2 ,General ,50~     ,M4 ,Female,1    ,R3 ,KR-46        ,51        ,56699   ,South Jeolla     ,2015
5      ,M2 ,Dorment ,~20     ,M5 ,Female,1    ,R3 ,KR-46        ,18        ,95074   ,South Jeolla     ,2015
6      ,M1 ,General ,20-30   ,M5 ,Male  ,1    ,R1 ,KR-46        ,89        ,45480   ,South Jeolla     ,2016
2      ,M4 ,Dorment ,50~     ,M5 ,Female,1    ,R1 ,KR-46        ,63        ,67358   ,South Jeolla     ,2015
12     ,M4 ,VIP     ,50~     ,M5 ,Male  ,1    ,R2 ,KR-46        ,19        ,38646   ,South Jeolla     ,2016
6      ,M5 ,Dorment ,20-30   ,M4 ,Male  ,1    ,R2 ,KR-46        ,67        ,41009   ,South Jeolla     ,2015
12     ,M3 ,VIP     ,40-50   ,M1 ,Male  ,1    ,R5 ,KR-46        ,94        ,53923   ,South Jeolla     ,2016
3      ,M3 ,General ,30-40   ,M5 ,Female,1    ,R4 ,KR-46        ,51        ,49259   ,South Jeolla     ,2015
11     ,M5 ,Dorment ,~20     ,M3 ,Female,1    ,R3 ,KR-46        ,7         ,40618   ,South Jeolla     ,2016
1      ,M3 ,New     ,40-50   ,M2 ,Male  ,1    ,R2 ,KR-46        ,56        ,88158   ,South Jeolla     ,2016
10     ,M1 ,Dorment ,50~     ,M3 ,Female,1    ,R5 ,KR-46        ,27        ,5935    ,South Jeolla     ,2016
2      ,M3 ,VVIP    ,20-30   ,M5 ,Female,1    ,R2 ,KR-46        ,36        ,29660   ,South Jeolla     ,2016
7      ,M4 ,VIP     ,20-30   ,M2 ,Female,1    ,R5 ,KR-46        ,93        ,90032   ,South Jeolla     ,2015
4      ,M1 ,General ,50~     ,M3 ,Male  ,1    ,R1 ,KR-46        ,29        ,8944    ,South Jeolla     ,2015
2      ,M4 ,New     ,50~     ,M2 ,Female,1    ,R2 ,KR-46        ,74        ,31734   ,South Jeolla     ,2016
7      ,M5 ,New     ,50~     ,M2 ,Female,1    ,R4 ,KR-46        ,47        ,10636   ,South Jeolla     ,2015
12     ,M3 ,Dorment ,30-40   ,M5 ,Female,1    ,R2 ,KR-46        ,18        ,63022   ,South Jeolla     ,2016
7      ,M5 ,New     ,30-40   ,M5 ,Male  ,1    ,R3 ,KR-46        ,26        ,54346   ,South Jeolla     ,2015
10     ,M1 ,VVIP    ,~20     ,M4 ,Female,1    ,R3 ,KR-46        ,64        ,22141   ,South Jeolla     ,2015
12     ,M5 ,General ,20-30   ,M4 ,Male  ,1    ,R3 ,KR-46        ,18        ,55016   ,South Jeolla     ,2016
12     ,M1 ,General ,30-40   ,M3 ,Male  ,1    ,R2 ,KR-46        ,36        ,66280   ,South Jeolla     ,2016
2      ,M4 ,General ,30-40   ,M4 ,Female,1    ,R2 ,KR-46        ,72        ,80614   ,South Jeolla     ,2016
5      ,M1 ,VIP     ,30-40   ,M3 ,Male  ,1    ,R3 ,KR-46        ,24        ,80487   ,South Jeolla     ,2015
2      ,M5 ,VVIP    ,20-30   ,M5 ,Female,1    ,R2 ,KR-41        ,19        ,65337   ,Gyeonggi         ,2016
3      ,M1 ,VIP     ,20-30   ,M2 ,Male  ,1    ,R3 ,KR-41        ,12        ,42752   ,Gyeonggi         ,2016
4      ,M1 ,VVIP    ,~20     ,M4 ,Female,1    ,R1 ,KR-41        ,19        ,70826   ,Gyeonggi         ,2015
2      ,M1 ,Dorment ,30-40   ,M1 ,Male  ,1    ,R3 ,KR-41        ,19        ,27015   ,Gyeonggi         ,2015
10     ,M5 ,General ,30-40   ,M3 ,Female,1    ,R2 ,KR-41        ,11        ,64698   ,Gyeonggi         ,2016
10     ,M1 ,VIP     ,30-40   ,M3 ,Male  ,1    ,R2 ,KR-41        ,66        ,53724   ,Gyeonggi         ,2016
2      ,M5 ,General ,30-40   ,M3 ,Female,1    ,R2 ,KR-41        ,55        ,24903   ,Gyeonggi         ,2016
11     ,M1 ,New     ,~20     ,M2 ,Female,1    ,R5 ,KR-41        ,93        ,59957   ,Gyeonggi         ,2015
1      ,M1 ,Dorment ,30-40   ,M1 ,Male  ,1    ,R2 ,KR-41        ,69        ,13294   ,Gyeonggi         ,2015
6      ,M5 ,New     ,20-30   ,M1 ,Female,1    ,R2 ,KR-41        ,62        ,86194   ,Gyeonggi         ,2016
5      ,M5 ,VIP     ,40-50   ,M2 ,Female,1    ,R4 ,KR-41        ,34        ,22824   ,Gyeonggi         ,2016
10     ,M4 ,Dorment ,30-40   ,M2 ,Female,1    ,R4 ,KR-41        ,16        ,27621   ,Gyeonggi         ,2015
11     ,M1 ,General ,20-30   ,M3 ,Female,1    ,R2 ,KR-41        ,87        ,41131   ,Gyeonggi         ,2016
2      ,M4 ,General ,20-30   ,M4 ,Female,1    ,R1 ,KR-41        ,46        ,95818   ,Gyeonggi         ,2015
8      ,M4 ,General ,~20     ,M1 ,Female,1    ,R1 ,KR-41        ,14        ,97419   ,Gyeonggi         ,2016
2      ,M3 ,VIP     ,~20     ,M1 ,Female,1    ,R4 ,KR-41        ,48        ,87747   ,Gyeonggi         ,2015
2      ,M4 ,Dorment ,~20     ,M3 ,Male  ,1    ,R3 ,KR-41        ,2         ,1001    ,Gyeonggi         ,2015
8      ,M4 ,VIP     ,50~     ,M4 ,Male  ,1    ,R2 ,KR-41        ,50        ,18952   ,Gyeonggi         ,2015
9      ,M4 ,General ,20-30   ,M1 ,Male  ,1    ,R5 ,KR-41        ,81        ,48065   ,Gyeonggi         ,2015
6      ,M3 ,Dorment ,40-50   ,M2 ,Male  ,1    ,R2 ,KR-41        ,62        ,12369   ,Gyeonggi         ,2016
8      ,M2 ,New     ,40-50   ,M5 ,Female,1    ,R5 ,KR-41        ,2         ,75711   ,Gyeonggi         ,2016
7      ,M2 ,General ,40-50   ,M4 ,Female,1    ,R4 ,KR-41        ,43        ,82286   ,Gyeonggi         ,2015
11     ,M4 ,VIP     ,30-40   ,M5 ,Female,1    ,R1 ,KR-41        ,95        ,65770   ,Gyeonggi         ,2015
2      ,M3 ,Dorment ,~20     ,M2 ,Male  ,1    ,R2 ,KR-41        ,51        ,86596   ,Gyeonggi         ,2016
7      ,M2 ,General ,40-50   ,M5 ,Male  ,1    ,R1 ,KR-41        ,10        ,65516   ,Gyeonggi         ,2015
8      ,M4 ,General ,30-40   ,M5 ,Female,1    ,R1 ,KR-41        ,35        ,71163   ,Gyeonggi         ,2015
12     ,M5 ,General ,~20     ,M5 ,Female,1    ,R2 ,KR-41        ,77        ,49922   ,Gyeonggi         ,2016
7      ,M4 ,VVIP    ,~20     ,M1 ,Male  ,1    ,R2 ,KR-41        ,26        ,12241   ,Gyeonggi         ,2015
6      ,M1 ,VIP     ,20-30   ,M5 ,Female,1    ,R1 ,KR-41        ,5         ,4154    ,Gyeonggi         ,2016
12     ,M4 ,Dorment ,30-40   ,M2 ,Female,1    ,R4 ,KR-41        ,33        ,40406   ,Gyeonggi         ,2015
3      ,M1 ,New     ,~20     ,M5 ,Male  ,1    ,R4 ,KR-43        ,9         ,88372   ,North Chungcheong,2016
8      ,M2 ,VVIP    ,40-50   ,M1 ,Female,1    ,R4 ,KR-43        ,55        ,67194   ,North Chungcheong,2016
4      ,M5 ,Dorment ,50~     ,M5 ,Male  ,1    ,R1 ,KR-43        ,10        ,51631   ,North Chungcheong,2016
5      ,M2 ,VVIP    ,30-40   ,M2 ,Male  ,1    ,R1 ,KR-43        ,71        ,14774   ,North Chungcheong,2015
5      ,M1 ,VIP     ,20-30   ,M5 ,Female,1    ,R1 ,KR-43        ,3         ,87555   ,North Chungcheong,2015
6      ,M1 ,General ,50~     ,M3 ,Female,1    ,R1 ,KR-43        ,6         ,12967   ,North Chungcheong,2015
9      ,M1 ,VIP     ,~20     ,M4 ,Female,1    ,R3 ,KR-43        ,71        ,71674   ,North Chungcheong,2015
4      ,M1 ,VIP     ,~20     ,M2 ,Male  ,1    ,R4 ,KR-43        ,12        ,13580   ,North Chungcheong,2016
2      ,M1 ,New     ,30-40   ,M5 ,Female,1    ,R3 ,KR-43        ,14        ,7935    ,North Chungcheong,2015
4      ,M5 ,VVIP    ,20-30   ,M1 ,Male  ,1    ,R4 ,KR-43        ,98        ,31595   ,North Chungcheong,2015
9      ,M3 ,VVIP    ,30-40   ,M3 ,Female,1    ,R4 ,KR-43        ,69        ,93392   ,North Chungcheong,2015
6      ,M3 ,Dorment ,30-40   ,M4 ,Female,1    ,R4 ,KR-43        ,84        ,81965   ,North Chungcheong,2016
12     ,M4 ,VIP     ,40-50   ,M5 ,Male  ,1    ,R4 ,KR-43        ,33        ,79995   ,North Chungcheong,2015
10     ,M2 ,VVIP    ,30-40   ,M5 ,Male  ,1    ,R5 ,KR-43        ,51        ,88331   ,North Chungcheong,2016
10     ,M3 ,Dorment ,40-50   ,M4 ,Female,1    ,R5 ,KR-43        ,19        ,78124   ,North Chungcheong,2016
9      ,M2 ,Dorment ,40-50   ,M1 ,Female,1    ,R4 ,KR-43        ,66        ,36966   ,North Chungcheong,2015
1      ,M3 ,VIP     ,40-50   ,M1 ,Female,1    ,R3 ,KR-43        ,78        ,81091   ,North Chungcheong,2015
7      ,M2 ,New     ,~20     ,M5 ,Female,1    ,R5 ,KR-43        ,62        ,74699   ,North Chungcheong,2015
5      ,M3 ,General ,20-30   ,M5 ,Female,1    ,R4 ,KR-43        ,68        ,18912   ,North Chungcheong,2015
9      ,M2 ,VIP     ,50~     ,M3 ,Female,1    ,R4 ,KR-43        ,15        ,18221   ,North Chungcheong,2015
1      ,M3 ,VVIP    ,30-40   ,M2 ,Male  ,1    ,R3 ,KR-43        ,78        ,84649   ,North Chungcheong,2016
10     ,M3 ,VIP     ,30-40   ,M3 ,Female,1    ,R2 ,KR-43        ,43        ,17235   ,North Chungcheong,2015
10     ,M1 ,General ,50~     ,M2 ,Male  ,1    ,R4 ,KR-43        ,36        ,79080   ,North Chungcheong,2015
1      ,M2 ,VIP     ,20-30   ,M4 ,Female,1    ,R3 ,KR-43        ,56        ,73740   ,North Chungcheong,2016
1      ,M1 ,New     ,50~     ,M5 ,Female,1    ,R2 ,KR-43        ,45        ,74686   ,North Chungcheong,2016
1      ,M1 ,VIP     ,20-30   ,M4 ,Female,1    ,R2 ,KR-43        ,66        ,75021   ,North Chungcheong,2016
2      ,M3 ,General ,30-40   ,M2 ,Male  ,1    ,R4 ,KR-43        ,94        ,97968   ,North Chungcheong,2015
4      ,M4 ,New     ,20-30   ,M5 ,Female,1    ,R2 ,KR-43        ,43        ,35225   ,North Chungcheong,2015
6      ,M4 ,Dorment ,30-40   ,M1 ,Female,1    ,R5 ,KR-43        ,26        ,89815   ,North Chungcheong,2016
3      ,M1 ,Dorment ,~20     ,M3 ,Female,1    ,R1 ,KR-43        ,41        ,30062   ,North Chungcheong,2015
8      ,M3 ,Dorment ,40-50   ,M2 ,Male  ,1    ,R3 ,KR-42        ,54        ,78107   ,Gangwon          ,2016
2      ,M1 ,VVIP    ,~20     ,M2 ,Female,1    ,R5 ,KR-42        ,15        ,60201   ,Gangwon          ,2016
3      ,M1 ,VIP     ,30-40   ,M2 ,Female,1    ,R4 ,KR-42        ,49        ,48923   ,Gangwon          ,2015
4      ,M1 ,VIP     ,40-50   ,M1 ,Female,1    ,R2 ,KR-42        ,7         ,58443   ,Gangwon          ,2016
6      ,M1 ,Dorment ,30-40   ,M3 ,Female,1    ,R3 ,KR-42        ,96        ,60753   ,Gangwon          ,2016
9      ,M1 ,VVIP    ,30-40   ,M5 ,Female,1    ,R4 ,KR-42        ,90        ,75758   ,Gangwon          ,2015
5      ,M5 ,VIP     ,40-50   ,M1 ,Male  ,1    ,R3 ,KR-42        ,5         ,13685   ,Gangwon          ,2015
1      ,M4 ,VVIP    ,30-40   ,M5 ,Male  ,1    ,R3 ,KR-42        ,16        ,86649   ,Gangwon          ,2015
10     ,M2 ,General ,20-30   ,M4 ,Male  ,1    ,R4 ,KR-42        ,52        ,96739   ,Gangwon          ,2015
5      ,M4 ,New     ,40-50   ,M5 ,Male  ,1    ,R4 ,KR-42        ,71        ,39930   ,Gangwon          ,2016
6      ,M5 ,New     ,~20     ,M1 ,Male  ,1    ,R4 ,KR-42        ,29        ,47126   ,Gangwon          ,2016
5      ,M3 ,VIP     ,~20     ,M2 ,Male  ,1    ,R4 ,KR-42        ,61        ,88508   ,Gangwon          ,2015
11     ,M1 ,VVIP    ,30-40   ,M1 ,Female,1    ,R5 ,KR-42        ,9         ,70798   ,Gangwon          ,2016
9      ,M1 ,VIP     ,40-50   ,M2 ,Male  ,1    ,R3 ,KR-42        ,46        ,37052   ,Gangwon          ,2016
1      ,M4 ,VVIP    ,30-40   ,M4 ,Female,1    ,R2 ,KR-42        ,37        ,10922   ,Gangwon          ,2015
4      ,M3 ,Dorment ,~20     ,M4 ,Female,1    ,R4 ,KR-42        ,30        ,80773   ,Gangwon          ,2015
3      ,M2 ,VVIP    ,30-40   ,M2 ,Female,1    ,R1 ,KR-42        ,69        ,91065   ,Gangwon          ,2016
11     ,M4 ,VIP     ,20-30   ,M1 ,Female,1    ,R3 ,KR-42        ,75        ,35765   ,Gangwon          ,2015
9      ,M4 ,VVIP    ,30-40   ,M1 ,Male  ,1    ,R1 ,KR-42        ,58        ,65249   ,Gangwon          ,2015
8      ,M2 ,VVIP    ,50~     ,M1 ,Male  ,1    ,R5 ,KR-42        ,68        ,64881   ,Gangwon          ,2016
11     ,M2 ,Dorment ,50~     ,M5 ,Male  ,1    ,R4 ,KR-42        ,5         ,58345   ,Gangwon          ,2015
7      ,M2 ,General ,40-50   ,M1 ,Male  ,1    ,R3 ,KR-42        ,15        ,34413   ,Gangwon          ,2015
6      ,M2 ,New     ,40-50   ,M1 ,Female,1    ,R3 ,KR-42        ,24        ,73666   ,Gangwon          ,2015
7      ,M4 ,New     ,20-30   ,M3 ,Male  ,1    ,R4 ,KR-42        ,37        ,63423   ,Gangwon          ,2015
6      ,M3 ,General ,40-50   ,M5 ,Male  ,1    ,R5 ,KR-42        ,11        ,93642   ,Gangwon          ,2015
10     ,M2 ,New     ,~20     ,M5 ,Male  ,1    ,R2 ,KR-42        ,26        ,11182   ,Gangwon          ,2015
11     ,M5 ,VVIP    ,40-50   ,M2 ,Female,1    ,R5 ,KR-42        ,5         ,20206   ,Gangwon          ,2015
8      ,M1 ,VIP     ,40-50   ,M4 ,Male  ,1    ,R3 ,KR-42        ,89        ,62487   ,Gangwon          ,2015
5      ,M5 ,VIP     ,40-50   ,M2 ,Female,1    ,R2 ,KR-42        ,44        ,72825   ,Gangwon          ,2015
12     ,M5 ,Dorment ,50~     ,M2 ,Female,1    ,R1 ,KR-42        ,18        ,43435   ,Gangwon          ,2015
7      ,M5 ,VVIP    ,30-40   ,M5 ,Female,1    ,R4 ,KR-27        ,49        ,17993   ,Daegu            ,2015
10     ,M5 ,General ,40-50   ,M1 ,Male  ,1    ,R3 ,KR-27        ,57        ,14027   ,Daegu            ,2015
11     ,M2 ,Dorment ,50~     ,M4 ,Male  ,1    ,R4 ,KR-27        ,60        ,11847   ,Daegu            ,2015
12     ,M4 ,General ,30-40   ,M3 ,Male  ,1    ,R3 ,KR-27        ,56        ,97319   ,Daegu            ,2015
10     ,M2 ,VIP     ,50~     ,M2 ,Female,1    ,R1 ,KR-27        ,15        ,68898   ,Daegu            ,2015
6      ,M5 ,VIP     ,30-40   ,M5 ,Female,1    ,R2 ,KR-27        ,60        ,50887   ,Daegu            ,2016
9      ,M5 ,General ,~20     ,M3 ,Female,1    ,R4 ,KR-27        ,56        ,22607   ,Daegu            ,2015
4      ,M4 ,New     ,~20     ,M5 ,Male  ,1    ,R5 ,KR-27        ,37        ,68313   ,Daegu            ,2016
3      ,M4 ,VVIP    ,20-30   ,M4 ,Female,1    ,R2 ,KR-27        ,20        ,25863   ,Daegu            ,2015
4      ,M5 ,General ,40-50   ,M3 ,Female,1    ,R4 ,KR-27        ,60        ,22518   ,Daegu            ,2016
2      ,M4 ,VIP     ,40-50   ,M4 ,Female,1    ,R2 ,KR-27        ,89        ,86615   ,Daegu            ,2015
5      ,M3 ,General ,~20     ,M3 ,Female,1    ,R1 ,KR-27        ,59        ,41612   ,Daegu            ,2015
10     ,M5 ,Dorment ,30-40   ,M1 ,Female,1    ,R5 ,KR-27        ,69        ,78186   ,Daegu            ,2016
8      ,M3 ,VIP     ,50~     ,M4 ,Female,1    ,R3 ,KR-27        ,11        ,1387    ,Daegu            ,2016
7      ,M4 ,VVIP    ,30-40   ,M4 ,Female,1    ,R1 ,KR-27        ,26        ,19509   ,Daegu            ,2016
1      ,M4 ,VVIP    ,20-30   ,M5 ,Male  ,1    ,R4 ,KR-27        ,16        ,52409   ,Daegu            ,2015
12     ,M4 ,VVIP    ,40-50   ,M4 ,Female,1    ,R3 ,KR-27        ,32        ,77932   ,Daegu            ,2016
4      ,M5 ,VVIP    ,50~     ,M4 ,Male  ,1    ,R2 ,KR-27        ,66        ,18466   ,Daegu            ,2016
12     ,M2 ,VVIP    ,50~     ,M5 ,Male  ,1    ,R5 ,KR-27        ,100       ,29801   ,Daegu            ,2016
3      ,M5 ,New     ,20-30   ,M2 ,Male  ,1    ,R4 ,KR-27        ,4         ,26066   ,Daegu            ,2016
7      ,M2 ,Dorment ,20-30   ,M1 ,Male  ,1    ,R2 ,KR-27        ,68        ,69721   ,Daegu            ,2016
8      ,M5 ,General ,30-40   ,M4 ,Male  ,1    ,R3 ,KR-27        ,81        ,43722   ,Daegu            ,2016
12     ,M3 ,VIP     ,40-50   ,M1 ,Female,1    ,R3 ,KR-27        ,61        ,3459    ,Daegu            ,2015
11     ,M3 ,General ,20-30   ,M2 ,Female,1    ,R4 ,KR-27        ,33        ,77041   ,Daegu            ,2016
4      ,M5 ,VIP     ,~20     ,M4 ,Male  ,1    ,R2 ,KR-27        ,50        ,42046   ,Daegu            ,2016
9      ,M1 ,VIP     ,20-30   ,M5 ,Male  ,1    ,R2 ,KR-27        ,92        ,23342   ,Daegu            ,2016
5      ,M1 ,VVIP    ,20-30   ,M4 ,Female,1    ,R3 ,KR-27        ,74        ,70533   ,Daegu            ,2016
5      ,M3 ,General ,~20     ,M4 ,Female,1    ,R2 ,KR-27        ,12        ,57414   ,Daegu            ,2016
9      ,M5 ,Dorment ,~20     ,M3 ,Female,1    ,R5 ,KR-27        ,4         ,46566   ,Daegu            ,2016
1      ,M5 ,VVIP    ,20-30   ,M3 ,Male  ,1    ,R3 ,KR-27        ,81        ,84242   ,Daegu            ,2015
6      ,M1 ,New     ,~20     ,M4 ,Female,1    ,R2 ,KR-11        ,38        ,51288   ,Seoul            ,2016
11     ,M3 ,VIP     ,~20     ,M2 ,Female,1    ,R4 ,KR-11        ,62        ,32822   ,Seoul            ,2015
2      ,M2 ,VVIP    ,40-50   ,M4 ,Male  ,1    ,R1 ,KR-11        ,82        ,33922   ,Seoul            ,2016
9      ,M3 ,Dorment ,50~     ,M5 ,Male  ,1    ,R2 ,KR-11        ,53        ,89814   ,Seoul            ,2016
7      ,M3 ,Dorment ,~20     ,M4 ,Male  ,1    ,R3 ,KR-11        ,28        ,70422   ,Seoul            ,2016
11     ,M2 ,New     ,30-40   ,M5 ,Male  ,1    ,R5 ,KR-11        ,96        ,31576   ,Seoul            ,2015
9      ,M2 ,Dorment ,20-30   ,M3 ,Female,1    ,R1 ,KR-11        ,36        ,38467   ,Seoul            ,2015
7      ,M4 ,General ,30-40   ,M2 ,Female,1    ,R1 ,KR-11        ,55        ,57752   ,Seoul            ,2016
7      ,M5 ,General ,50~     ,M1 ,Male  ,1    ,R5 ,KR-11        ,22        ,57508   ,Seoul            ,2016
6      ,M1 ,General ,~20     ,M4 ,Male  ,1    ,R2 ,KR-11        ,87        ,30215   ,Seoul            ,2015
4      ,M4 ,New     ,20-30   ,M5 ,Male  ,1    ,R5 ,KR-11        ,80        ,29661   ,Seoul            ,2015
3      ,M4 ,Dorment ,~20     ,M3 ,Male  ,1    ,R1 ,KR-11        ,19        ,57587   ,Seoul            ,2016
5      ,M3 ,General ,40-50   ,M5 ,Male  ,1    ,R1 ,KR-11        ,75        ,70627   ,Seoul            ,2015
6      ,M1 ,New     ,~20     ,M2 ,Female,1    ,R2 ,KR-11        ,26        ,13775   ,Seoul            ,2016
5      ,M4 ,New     ,40-50   ,M2 ,Female,1    ,R2 ,KR-11        ,31        ,29224   ,Seoul            ,2015
4      ,M2 ,New     ,30-40   ,M5 ,Female,1    ,R2 ,KR-11        ,49        ,61717   ,Seoul            ,2015
8      ,M1 ,VIP     ,40-50   ,M1 ,Female,1    ,R1 ,KR-11        ,12        ,8561    ,Seoul            ,2016
5      ,M1 ,New     ,40-50   ,M2 ,Male  ,1    ,R5 ,KR-11        ,35        ,95124   ,Seoul            ,2015
7      ,M3 ,New     ,30-40   ,M2 ,Female,1    ,R4 ,KR-11        ,47        ,16354   ,Seoul            ,2016
12     ,M1 ,New     ,40-50   ,M4 ,Male  ,1    ,R4 ,KR-11        ,81        ,96080   ,Seoul            ,2015
8      ,M1 ,Dorment ,~20     ,M5 ,Female,1    ,R4 ,KR-11        ,25        ,25665   ,Seoul            ,2015
6      ,M4 ,Dorment ,~20     ,M1 ,Male  ,1    ,R3 ,KR-11        ,82        ,65196   ,Seoul            ,2015
4      ,M2 ,New     ,~20     ,M1 ,Female,1    ,R1 ,KR-11        ,73        ,75431   ,Seoul            ,2016
2      ,M3 ,Dorment ,30-40   ,M5 ,Female,1    ,R4 ,KR-11        ,100       ,43057   ,Seoul            ,2016
2      ,M3 ,VVIP    ,~20     ,M1 ,Female,1    ,R5 ,KR-11        ,56        ,30601   ,Seoul            ,2016
11     ,M3 ,Dorment ,30-40   ,M4 ,Male  ,1    ,R5 ,KR-11        ,48        ,36095   ,Seoul            ,2016
7      ,M5 ,General ,20-30   ,M5 ,Female,1    ,R2 ,KR-11        ,82        ,4682    ,Seoul            ,2016
3      ,M4 ,Dorment ,~20     ,M1 ,Male  ,1    ,R2 ,KR-11        ,83        ,7612    ,Seoul            ,2016
9      ,M4 ,VVIP    ,30-40   ,M4 ,Male  ,1    ,R2 ,KR-11        ,90        ,81372   ,Seoul            ,2015
11     ,M1 ,VIP     ,40-50   ,M3 ,Female,1    ,R3 ,KR-11        ,39        ,35793   ,Seoul            ,2015
11     ,M3 ,VVIP    ,20-30   ,M5 ,Female,1    ,R2 ,KR-50        ,73        ,30379   ,Sejong           ,2016
2      ,M4 ,VVIP    ,40-50   ,M2 ,Male  ,1    ,R2 ,KR-50        ,82        ,49951   ,Sejong           ,2016
1      ,M1 ,Dorment ,~20     ,M3 ,Male  ,1    ,R4 ,KR-50        ,20        ,79706   ,Sejong           ,2016
10     ,M2 ,New     ,~20     ,M1 ,Female,1    ,R2 ,KR-50        ,91        ,28647   ,Sejong           ,2015
5      ,M4 ,New     ,30-40   ,M1 ,Female,1    ,R4 ,KR-50        ,75        ,15027   ,Sejong           ,2016
8      ,M3 ,VIP     ,30-40   ,M2 ,Female,1    ,R1 ,KR-50        ,5         ,86062   ,Sejong           ,2015
5      ,M5 ,General ,~20     ,M1 ,Female,1    ,R2 ,KR-50        ,73        ,54329   ,Sejong           ,2016
8      ,M3 ,New     ,40-50   ,M5 ,Male  ,1    ,R5 ,KR-50        ,21        ,84823   ,Sejong           ,2016
5      ,M3 ,Dorment ,~20     ,M2 ,Female,1    ,R2 ,KR-50        ,87        ,11469   ,Sejong           ,2015
9      ,M3 ,Dorment ,30-40   ,M3 ,Male  ,1    ,R2 ,KR-50        ,9         ,48393   ,Sejong           ,2015
2      ,M1 ,New     ,20-30   ,M3 ,Male  ,1    ,R4 ,KR-50        ,13        ,9329    ,Sejong           ,2015
10     ,M5 ,Dorment ,50~     ,M2 ,Female,1    ,R2 ,KR-50        ,40        ,79833   ,Sejong           ,2016
11     ,M5 ,VVIP    ,30-40   ,M2 ,Male  ,1    ,R1 ,KR-50        ,9         ,44274   ,Sejong           ,2015
9      ,M5 ,VIP     ,~20     ,M5 ,Female,1    ,R5 ,KR-50        ,100       ,39441   ,Sejong           ,2015
6      ,M3 ,General ,40-50   ,M1 ,Male  ,1    ,R2 ,KR-50        ,11        ,15462   ,Sejong           ,2015
11     ,M4 ,New     ,30-40   ,M3 ,Male  ,1    ,R3 ,KR-50        ,69        ,60646   ,Sejong           ,2016
8      ,M1 ,VVIP    ,50~     ,M1 ,Female,1    ,R1 ,KR-50        ,52        ,11464   ,Sejong           ,2016
1      ,M5 ,Dorment ,40-50   ,M5 ,Male  ,1    ,R5 ,KR-50        ,55        ,63066   ,Sejong           ,2016
12     ,M3 ,Dorment ,20-30   ,M5 ,Male  ,1    ,R4 ,KR-50        ,41        ,57840   ,Sejong           ,2015
6      ,M5 ,Dorment ,30-40   ,M2 ,Female,1    ,R4 ,KR-50        ,57        ,79745   ,Sejong           ,2016
7      ,M2 ,VVIP    ,40-50   ,M3 ,Male  ,1    ,R5 ,KR-50        ,55        ,71533   ,Sejong           ,2015
12     ,M4 ,VVIP    ,20-30   ,M3 ,Male  ,1    ,R2 ,KR-50        ,18        ,34747   ,Sejong           ,2015
2      ,M4 ,VIP     ,40-50   ,M4 ,Female,1    ,R4 ,KR-50        ,66        ,28664   ,Sejong           ,2015
7      ,M2 ,Dorment ,40-50   ,M1 ,Female,1    ,R5 ,KR-50        ,2         ,95037   ,Sejong           ,2016
10     ,M1 ,Dorment ,~20     ,M2 ,Male  ,1    ,R2 ,KR-50        ,100       ,44140   ,Sejong           ,2016
7      ,M3 ,General ,20-30   ,M5 ,Female,1    ,R5 ,KR-50        ,52        ,63473   ,Sejong           ,2016
12     ,M2 ,General ,20-30   ,M1 ,Male  ,1    ,R1 ,KR-50        ,64        ,11669   ,Sejong           ,2015
8      ,M1 ,General ,40-50   ,M2 ,Female,1    ,R5 ,KR-50        ,47        ,44216   ,Sejong           ,2015
5      ,M3 ,Dorment ,40-50   ,M1 ,Female,1    ,R2 ,KR-50        ,57        ,76757   ,Sejong           ,2015
12     ,M2 ,VIP     ,50~     ,M1 ,Male  ,1    ,R1 ,KR-50        ,14        ,40747   ,Sejong           ,2015
3      ,M1 ,Dorment ,20-30   ,M3 ,Female,1    ,R5 ,KR-29        ,35        ,14157   ,Gwangju          ,2015
12     ,M5 ,New     ,50~     ,M4 ,Male  ,1    ,R2 ,KR-29        ,32        ,84502   ,Gwangju          ,2015
5      ,M5 ,VVIP    ,~20     ,M1 ,Male  ,1    ,R2 ,KR-29        ,62        ,18312   ,Gwangju          ,2016
11     ,M3 ,Dorment ,20-30   ,M1 ,Male  ,1    ,R2 ,KR-29        ,14        ,50697   ,Gwangju          ,2016
10     ,M5 ,VIP     ,50~     ,M1 ,Female,1    ,R2 ,KR-29        ,6         ,26274   ,Gwangju          ,2016
1      ,M4 ,General ,30-40   ,M1 ,Male  ,1    ,R3 ,KR-29        ,85        ,80684   ,Gwangju          ,2016
1      ,M5 ,VVIP    ,40-50   ,M2 ,Male  ,1    ,R2 ,KR-29        ,73        ,16247   ,Gwangju          ,2016
4      ,M1 ,VIP     ,~20     ,M2 ,Female,1    ,R3 ,KR-29        ,81        ,85631   ,Gwangju          ,2016
11     ,M4 ,General ,20-30   ,M3 ,Male  ,1    ,R1 ,KR-29        ,2         ,71993   ,Gwangju          ,2016
3      ,M5 ,VIP     ,40-50   ,M3 ,Female,1    ,R4 ,KR-29        ,70        ,28387   ,Gwangju          ,2016
6      ,M5 ,VIP     ,~20     ,M2 ,Female,1    ,R2 ,KR-29        ,54        ,81632   ,Gwangju          ,2016
2      ,M2 ,Dorment ,30-40   ,M2 ,Male  ,1    ,R3 ,KR-29        ,10        ,50665   ,Gwangju          ,2015
6      ,M2 ,New     ,30-40   ,M2 ,Male  ,1    ,R4 ,KR-29        ,63        ,3427    ,Gwangju          ,2015
3      ,M4 ,New     ,50~     ,M5 ,Female,1    ,R4 ,KR-29        ,9         ,64485   ,Gwangju          ,2015
7      ,M5 ,General ,50~     ,M3 ,Male  ,1    ,R4 ,KR-29        ,15        ,36755   ,Gwangju          ,2016
3      ,M5 ,VVIP    ,40-50   ,M3 ,Male  ,1    ,R5 ,KR-29        ,62        ,62462   ,Gwangju          ,2015
6      ,M5 ,VIP     ,40-50   ,M1 ,Male  ,1    ,R4 ,KR-29        ,7         ,36977   ,Gwangju          ,2015
12     ,M5 ,VVIP    ,50~     ,M1 ,Female,1    ,R5 ,KR-29        ,71        ,25323   ,Gwangju          ,2016
6      ,M1 ,New     ,~20     ,M4 ,Female,1    ,R2 ,KR-29        ,39        ,48832   ,Gwangju          ,2015
3      ,M3 ,VVIP    ,20-30   ,M1 ,Male  ,1    ,R5 ,KR-29        ,26        ,95983   ,Gwangju          ,2016
6      ,M5 ,General ,40-50   ,M2 ,Female,1    ,R2 ,KR-29        ,97        ,26543   ,Gwangju          ,2015
12     ,M3 ,New     ,40-50   ,M1 ,Male  ,1    ,R2 ,KR-29        ,89        ,95803   ,Gwangju          ,2015
6      ,M2 ,General ,40-50   ,M2 ,Female,1    ,R1 ,KR-29        ,14        ,28595   ,Gwangju          ,2016
5      ,M2 ,General ,20-30   ,M3 ,Female,1    ,R5 ,KR-29        ,2         ,60703   ,Gwangju          ,2016
11     ,M4 ,Dorment ,50~     ,M1 ,Female,1    ,R1 ,KR-29        ,36        ,2234    ,Gwangju          ,2016
12     ,M5 ,Dorment ,~20     ,M5 ,Male  ,1    ,R1 ,KR-29        ,79        ,32370   ,Gwangju          ,2016
7      ,M3 ,VIP     ,40-50   ,M1 ,Male  ,1    ,R1 ,KR-29        ,93        ,19322   ,Gwangju          ,2015
10     ,M2 ,Dorment ,20-30   ,M5 ,Male  ,1    ,R5 ,KR-29        ,6         ,52520   ,Gwangju          ,2016
8      ,M3 ,VVIP    ,30-40   ,M4 ,Male  ,1    ,R1 ,KR-29        ,15        ,1681    ,Gwangju          ,2016
6      ,M3 ,VIP     ,40-50   ,M5 ,Female,1    ,R3 ,KR-29        ,38        ,61484   ,Gwangju          ,2016
9      ,M2 ,VIP     ,30-40   ,M2 ,Male  ,1    ,R1 ,KR-28        ,74        ,97489   ,Incheon          ,2016
9      ,M3 ,New     ,40-50   ,M4 ,Female,1    ,R4 ,KR-28        ,46        ,3719    ,Incheon          ,2015
6      ,M1 ,VIP     ,~20     ,M3 ,Male  ,1    ,R2 ,KR-28        ,28        ,3367    ,Incheon          ,2015
10     ,M3 ,Dorment ,30-40   ,M1 ,Female,1    ,R3 ,KR-28        ,22        ,6149    ,Incheon          ,2015
11     ,M5 ,VIP     ,30-40   ,M3 ,Male  ,1    ,R3 ,KR-28        ,95        ,82010   ,Incheon          ,2015
12     ,M3 ,VVIP    ,30-40   ,M1 ,Female,1    ,R1 ,KR-28        ,66        ,13897   ,Incheon          ,2016
4      ,M1 ,New     ,50~     ,M5 ,Male  ,1    ,R4 ,KR-28        ,13        ,44280   ,Incheon          ,2016
12     ,M3 ,Dorment ,30-40   ,M4 ,Male  ,1    ,R2 ,KR-28        ,30        ,33106   ,Incheon          ,2016
4      ,M1 ,VIP     ,~20     ,M5 ,Female,1    ,R3 ,KR-28        ,18        ,42737   ,Incheon          ,2015
10     ,M4 ,New     ,~20     ,M4 ,Female,1    ,R2 ,KR-28        ,30        ,7129    ,Incheon          ,2016
7      ,M4 ,VIP     ,40-50   ,M1 ,Female,1    ,R3 ,KR-28        ,82        ,87958   ,Incheon          ,2015
10     ,M2 ,General ,40-50   ,M2 ,Male  ,1    ,R2 ,KR-28        ,20        ,89317   ,Incheon          ,2016
4      ,M2 ,New     ,20-30   ,M2 ,Male  ,1    ,R2 ,KR-28        ,97        ,58796   ,Incheon          ,2015
7      ,M3 ,General ,20-30   ,M3 ,Female,1    ,R4 ,KR-28        ,10        ,91671   ,Incheon          ,2016
1      ,M2 ,New     ,40-50   ,M1 ,Female,1    ,R1 ,KR-28        ,93        ,47334   ,Incheon          ,2015
6      ,M4 ,VVIP    ,40-50   ,M2 ,Male  ,1    ,R1 ,KR-28        ,94        ,26682   ,Incheon          ,2016
9      ,M5 ,VVIP    ,30-40   ,M1 ,Female,1    ,R5 ,KR-28        ,42        ,99739   ,Incheon          ,2015
9      ,M4 ,VVIP    ,~20     ,M5 ,Female,1    ,R3 ,KR-28        ,16        ,98388   ,Incheon          ,2015
2      ,M2 ,VVIP    ,20-30   ,M4 ,Female,1    ,R4 ,KR-28        ,16        ,84301   ,Incheon          ,2015
10     ,M4 ,VIP     ,30-40   ,M1 ,Male  ,1    ,R4 ,KR-28        ,14        ,68188   ,Incheon          ,2016
8      ,M4 ,VVIP    ,20-30   ,M2 ,Female,1    ,R4 ,KR-28        ,9         ,17465   ,Incheon          ,2015
12     ,M5 ,General ,30-40   ,M5 ,Male  ,1    ,R1 ,KR-28        ,15        ,84600   ,Incheon          ,2016
7      ,M3 ,General ,20-30   ,M5 ,Female,1    ,R4 ,KR-28        ,85        ,22304   ,Incheon          ,2015
7      ,M4 ,New     ,40-50   ,M4 ,Female,1    ,R3 ,KR-28        ,16        ,38391   ,Incheon          ,2016
11     ,M3 ,Dorment ,30-40   ,M4 ,Female,1    ,R1 ,KR-28        ,12        ,84180   ,Incheon          ,2016
8      ,M5 ,VVIP    ,40-50   ,M5 ,Female,1    ,R5 ,KR-28        ,68        ,47120   ,Incheon          ,2016
4      ,M4 ,New     ,30-40   ,M4 ,Female,1    ,R2 ,KR-28        ,11        ,54130   ,Incheon          ,2016
10     ,M3 ,VVIP    ,50~     ,M4 ,Female,1    ,R2 ,KR-28        ,39        ,21505   ,Incheon          ,2016
5      ,M5 ,VVIP    ,~20     ,M5 ,Female,1    ,R1 ,KR-28        ,15        ,31631   ,Incheon          ,2016
1      ,M1 ,New     ,~20     ,M5 ,Female,1    ,R3 ,KR-28        ,13        ,74922   ,Incheon          ,2015
9      ,M2 ,VIP     ,~20     ,M1 ,Male  ,1    ,R3 ,KR-30        ,49        ,42247   ,Daejeon          ,2015
6      ,M4 ,VIP     ,30-40   ,M2 ,Female,1    ,R3 ,KR-30        ,20        ,29607   ,Daejeon          ,2016
7      ,M3 ,General ,~20     ,M2 ,Male  ,1    ,R1 ,KR-30        ,12        ,17896   ,Daejeon          ,2015
8      ,M1 ,VIP     ,40-50   ,M1 ,Male  ,1    ,R4 ,KR-30        ,9         ,77752   ,Daejeon          ,2016
10     ,M3 ,VIP     ,~20     ,M4 ,Male  ,1    ,R4 ,KR-30        ,74        ,94331   ,Daejeon          ,2015
6      ,M2 ,General ,~20     ,M2 ,Female,1    ,R5 ,KR-30        ,94        ,29990   ,Daejeon          ,2015
3      ,M2 ,VIP     ,50~     ,M2 ,Female,1    ,R2 ,KR-30        ,71        ,23156   ,Daejeon          ,2016
10     ,M3 ,General ,50~     ,M3 ,Male  ,1    ,R2 ,KR-30        ,36        ,64038   ,Daejeon          ,2015
7      ,M2 ,VIP     ,~20     ,M3 ,Male  ,1    ,R2 ,KR-30        ,44        ,40041   ,Daejeon          ,2016
3      ,M5 ,Dorment ,50~     ,M1 ,Female,1    ,R4 ,KR-30        ,39        ,90122   ,Daejeon          ,2015
9      ,M5 ,New     ,40-50   ,M5 ,Female,1    ,R1 ,KR-30        ,33        ,28309   ,Daejeon          ,2015
1      ,M4 ,New     ,40-50   ,M5 ,Female,1    ,R5 ,KR-30        ,56        ,73483   ,Daejeon          ,2016
10     ,M2 ,VVIP    ,20-30   ,M5 ,Female,1    ,R1 ,KR-30        ,31        ,89492   ,Daejeon          ,2015
2      ,M3 ,VVIP    ,50~     ,M1 ,Male  ,1    ,R4 ,KR-30        ,18        ,75280   ,Daejeon          ,2015
6      ,M2 ,Dorment ,~20     ,M4 ,Male  ,1    ,R2 ,KR-30        ,51        ,78838   ,Daejeon          ,2015
2      ,M3 ,VVIP    ,30-40   ,M5 ,Female,1    ,R3 ,KR-30        ,37        ,19105   ,Daejeon          ,2015
12     ,M4 ,General ,20-30   ,M2 ,Male  ,1    ,R1 ,KR-30        ,89        ,23353   ,Daejeon          ,2016
7      ,M1 ,Dorment ,40-50   ,M5 ,Female,1    ,R3 ,KR-30        ,36        ,54433   ,Daejeon          ,2015
11     ,M5 ,New     ,20-30   ,M2 ,Female,1    ,R1 ,KR-30        ,13        ,77864   ,Daejeon          ,2016
11     ,M2 ,VVIP    ,~20     ,M2 ,Female,1    ,R4 ,KR-30        ,41        ,12077   ,Daejeon          ,2015
8      ,M5 ,General ,30-40   ,M2 ,Male  ,1    ,R3 ,KR-30        ,95        ,71012   ,Daejeon          ,2015
7      ,M2 ,VIP     ,40-50   ,M1 ,Male  ,1    ,R2 ,KR-30        ,78        ,95865   ,Daejeon          ,2015
2      ,M1 ,General ,40-50   ,M5 ,Female,1    ,R3 ,KR-30        ,70        ,26477   ,Daejeon          ,2015
9      ,M1 ,VIP     ,50~     ,M3 ,Male  ,1    ,R3 ,KR-30        ,63        ,60659   ,Daejeon          ,2015
1      ,M4 ,VIP     ,~20     ,M2 ,Female,1    ,R4 ,KR-30        ,49        ,75798   ,Daejeon          ,2016
2      ,M3 ,VVIP    ,50~     ,M1 ,Male  ,1    ,R1 ,KR-26        ,93        ,19896   ,Busan            ,2015
7      ,M4 ,New     ,50~     ,M3 ,Female,1    ,R3 ,KR-26        ,16        ,16117   ,Busan            ,2016
8      ,M5 ,General ,50~     ,M5 ,Male  ,1    ,R1 ,KR-26        ,54        ,72416   ,Busan            ,2016
9      ,M1 ,General ,30-40   ,M4 ,Female,1    ,R2 ,KR-26        ,15        ,3623    ,Busan            ,2016
2      ,M5 ,VIP     ,40-50   ,M5 ,Male  ,1    ,R2 ,KR-26        ,9         ,78931   ,Busan            ,2015
7      ,M5 ,VIP     ,50~     ,M5 ,Male  ,1    ,R5 ,KR-26        ,43        ,75721   ,Busan            ,2015
2      ,M3 ,General ,~20     ,M1 ,Female,1    ,R5 ,KR-26        ,35        ,75765   ,Busan            ,2016
4      ,M1 ,New     ,30-40   ,M4 ,Male  ,1    ,R4 ,KR-26        ,96        ,72936   ,Busan            ,2015
6      ,M1 ,New     ,40-50   ,M5 ,Male  ,1    ,R5 ,KR-26        ,62        ,30435   ,Busan            ,2016
11     ,M2 ,VIP     ,30-40   ,M4 ,Female,1    ,R2 ,KR-26        ,27        ,80422   ,Busan            ,2015
11     ,M4 ,General ,~20     ,M2 ,Female,1    ,R1 ,KR-26        ,27        ,22726   ,Busan            ,2016
7      ,M5 ,General ,40-50   ,M4 ,Female,1    ,R3 ,KR-26        ,17        ,82769   ,Busan            ,2016
11     ,M2 ,New     ,~20     ,M4 ,Male  ,1    ,R4 ,KR-26        ,4         ,44280   ,Busan            ,2015
5      ,M5 ,VIP     ,30-40   ,M1 ,Male  ,1    ,R1 ,KR-26        ,18        ,70908   ,Busan            ,2015
1      ,M5 ,VVIP    ,50~     ,M4 ,Male  ,1    ,R4 ,KR-26        ,9         ,73023   ,Busan            ,2015
10     ,M4 ,VVIP    ,50~     ,M2 ,Female,1    ,R1 ,KR-26        ,100       ,23949   ,Busan            ,2015
9      ,M1 ,New     ,30-40   ,M3 ,Female,1    ,R2 ,KR-26        ,33        ,31225   ,Busan            ,2015
8      ,M2 ,VIP     ,20-30   ,M2 ,Female,1    ,R3 ,KR-26        ,84        ,14972   ,Busan            ,2016
2      ,M1 ,VIP     ,30-40   ,M1 ,Female,1    ,R5 ,KR-26        ,20        ,94672   ,Busan            ,2015
4      ,M1 ,Dorment ,50~     ,M2 ,Female,1    ,R4 ,KR-26        ,21        ,66157   ,Busan            ,2016
8      ,M5 ,VIP     ,40-50   ,M3 ,Female,1    ,R1 ,KR-26        ,80        ,40349   ,Busan            ,2015
1      ,M5 ,Dorment ,30-40   ,M5 ,Male  ,1    ,R1 ,KR-26        ,44        ,2791    ,Busan            ,2015
1      ,M4 ,VIP     ,30-40   ,M2 ,Male  ,1    ,R3 ,KR-26        ,95        ,18928   ,Busan            ,2015
4      ,M4 ,Dorment ,50~     ,M3 ,Female,1    ,R3 ,KR-26        ,31        ,70753   ,Busan            ,2016
1      ,M1 ,VVIP    ,20-30   ,M5 ,Female,1    ,R4 ,KR-26        ,39        ,66471   ,Busan            ,2015
11     ,M3 ,VIP     ,~20     ,M2 ,Female,1    ,R5 ,KR-26        ,63        ,57887   ,Busan            ,2016