COUNT,FIRST_IDPR,NOMBPROV                 ,FIRST_NOMB   ,LAST_DCTO,LAST_LEY,FIRST_FECH  ,LAST_FECHA  ,MIN_SHAPE_ ,ha        ,FIRST_IDDP,NOMBDEP      ,BEDP_COUNT
9    ,0301      ,ABANCAY                  ,APURIMAC     ,LEY      ,S/N     ,28/12/1961  ,21/11/1893  ,345827.3362,345827.34 ,03        ,APURIMAC     ,80
8    ,0902      ,ACOBAMBA                 ,HUANCAVELICA ,LEY      ,5292    ,23/11/1925  ,23/11/1925  ,92636.74254,92636.74  ,09        ,HUANCAVELICA ,94
7    ,0802      ,ACOMAYO                  ,CUSCO        ,LEY      ,S/N     ,11/11/1964  ,02/01/1857  ,93285.80807,93285.81  ,08        ,CUSCO        ,108
5    ,0202      ,AIJA                     ,ANCASH       ,LEY      ,8188    ,21/12/1907  ,05/03/1936  ,69639.63144,69639.63  ,02        ,ANCASH       ,166
6    ,1602      ,ALTO AMAZONAS            ,LORETO       ,LEY      ,S/N     ,08/09/1964  ,02/01/1857  ,1917212.658,1917212.66,16        ,LORETO       ,51
8    ,1002      ,AMBO                     ,HUANUCO      ,LEY      ,9165    ,21/09/1943  ,05/09/1940  ,157735.8507,157735.85 ,10        ,HUANUCO      ,76
19   ,0302      ,ANDAHUAYLAS              ,APURIMAC     ,LEY      ,9910    ,EPOCA INDEP.,20/01/1944  ,403553.4397,403553.44 ,03        ,APURIMAC     ,80
12   ,0903      ,ANGARAES                 ,HUANCAVELICA ,LEY      ,9354    ,30/10/1984  ,28/02/1941  ,194061.7148,194061.71 ,09        ,HUANCAVELICA ,94
9    ,0803      ,ANTA                     ,CUSCO        ,LEY      ,S/N     ,01/10/1941  ,14/11/1896  ,194375.5896,194375.59 ,08        ,CUSCO        ,108
7    ,0303      ,ANTABAMBA                ,APURIMAC     ,LEY      ,13677   ,12/12/1942  ,18/08/1961  ,323079.8694,323079.87 ,03        ,APURIMAC     ,80
6    ,0203      ,ANTONIO RAYMONDI         ,ANCASH       ,LEY      ,15187   ,27/05/1987  ,26/10/1964  ,55914.81573,55914.82  ,02        ,ANCASH       ,166
29   ,0401      ,AREQUIPA                 ,AREQUIPA     ,LEY      ,14124   ,EPOCA INDEP.,15/06/1962  ,962246.8848,962246.88 ,04        ,AREQUIPA     ,109
8    ,1302      ,ASCOPE                   ,LA LIBERTAD  ,LEY      ,26916   ,EPOCA INDEP.,21/01/1998  ,265013.609 ,265013.61 ,13        ,LA LIBERTAD  ,83
2    ,0204      ,ASUNCION                 ,ANCASH       ,LEY      ,23764   ,EPOCA INDEP.,30/12/1983  ,52824.62375,52824.62  ,02        ,ANCASH       ,166
4    ,2502      ,ATALAYA                  ,UCAYALI      ,LEY      ,9815    ,02/07/1943  ,02/07/1943  ,3904975.476,3904975.48,25        ,UCAYALI      ,15
10   ,2002      ,AYABACA                  ,PIURA        ,LEY      ,S/N     ,EPOCA INDEP.,02/01/1857  ,522900.137 ,522900.14 ,20        ,PIURA        ,64
17   ,0304      ,AYMARAES                 ,APURIMAC     ,LEY      ,13787   ,01/06/1914  ,27/12/1961  ,412862.544 ,412862.54 ,03        ,APURIMAC     ,80
15   ,2102      ,AZANGARO                 ,PUNO         ,DEC.     ,S/N     ,EPOCA INDEP.,02/05/1854  ,512576.4327,512576.43 ,21        ,PUNO         ,109
6    ,0102      ,BAGUA                    ,AMAZONAS     ,LEY      ,S/N     ,01/09/1941  ,05/02/1861  ,573354.3607,573354.36 ,01        ,AMAZONAS     ,84
5    ,1502      ,BARRANCA                 ,LIMA         ,-        ,-       ,23/11/1976  ,EPOC.INDEP. ,137025.0821,137025.08 ,15        ,LIMA         ,171
6    ,2202      ,BELLAVISTA               ,SAN MARTIN   ,LEY      ,10164   ,05/01/1945  ,05/01/1945  ,806890.5272,806890.53 ,22        ,SAN MARTIN   ,77
6    ,1303      ,BOLIVAR                  ,LA LIBERTAD  ,LEY      ,S/N     ,20/11/1916  ,02/01/1857  ,173630.9557,173630.96 ,13        ,LA LIBERTAD  ,83
15   ,0205      ,BOLOGNESI                ,ANCASH       ,LEY      ,S/N     ,29/01/1965  ,02/01/1857  ,312887.5334,312887.53 ,02        ,ANCASH       ,166
12   ,0103      ,BONGARA                  ,AMAZONAS     ,LEY      ,S/N     ,03/11/1933  ,26/12/1870  ,283842.0793,283842.08 ,01        ,AMAZONAS     ,84
4    ,0602      ,CAJABAMBA                ,CAJAMARCA    ,DEC.     ,S/N     ,EPOCA INDEP.,11/02/1855  ,178954.5598,178954.56 ,06        ,CAJAMARCA    ,127
12   ,0601      ,CAJAMARCA                ,CAJAMARCA    ,LEY      ,S/N     ,14/12/1870  ,02/01/1857  ,298330.8827,298330.88 ,06        ,CAJAMARCA    ,127
5    ,1503      ,CAJATAMBO                ,LIMA         ,L.R.     ,457     ,25/09/1868  ,22/01/1921  ,152718.4744,152718.47 ,15        ,LIMA         ,171
8    ,0804      ,CALCA                    ,CUSCO        ,LEY      ,23383   ,28/02/1946  ,18/05/1982  ,353947.8154,353947.82 ,08        ,CUSCO        ,108
6    ,0701      ,CALLAO                   ,CALLAO       ,D.L.     ,17392   ,06/10/1915  ,28/01/1969  ,14140.95437,14140.95  ,07        ,CALLAO       ,6
8    ,0402      ,CAMANA                   ,AREQUIPA     ,LEY      ,9999    ,EPOCA INDEP.,03/11/1944  ,399892.3974,399892.4  ,04        ,AREQUIPA     ,109
8    ,0805      ,CANAS                    ,CUSCO        ,LEY      ,9363    ,02/01/1857  ,01/09/1941  ,208744.1986,208744.2  ,08        ,CUSCO        ,108
8    ,0806      ,CANCHIS                  ,CUSCO        ,LEY      ,629     ,29/08/1834  ,11/11/1907  ,396207.0172,396207.02 ,08        ,CUSCO        ,108
6    ,2302      ,CANDARAVE                ,TACNA        ,-        ,-       ,05/02/1875  ,EPOCA INDEP.,232161.5652,232161.57 ,23        ,TACNA        ,27
6    ,0502      ,CANGALLO                 ,AYACUCHO     ,-        ,-       ,EPOCA INDEP.,EPOCA INDEP.,186904.1851,186904.19 ,05        ,AYACUCHO     ,111
7    ,1504      ,CANTA                    ,LIMA         ,LEY      ,10151   ,EPOC.INDEP. ,30/12/1944  ,169044.4266,169044.43 ,15        ,LIMA         ,171
16   ,1505      ,CA?TE                    ,LIMA         ,-        ,-       ,22/06/1962  ,EPOC.INDEP. ,451700.7572,451700.76 ,15        ,LIMA         ,171
10   ,2103      ,CARABAYA                 ,PUNO         ,-        ,-       ,EPOCA INDEP.,EPOCA INDEP.,1179106.039,1179106.04,21        ,PUNO         ,109
13   ,0403      ,CARAVELI                 ,AREQUIPA     ,LEY      ,12450   ,09/12/1897  ,24/11/1955  ,1300147.812,1300147.81,04        ,AREQUIPA     ,109
11   ,0206      ,CARHUAZ                  ,ANCASH       ,LEY      ,7951    ,22/11/1868  ,14/12/1934  ,81429.38543,81429.39  ,02        ,ANCASH       ,166
3    ,0207      ,CARLOS FERMIN FITZCARRALD,ANCASH       ,LEY      ,23609   ,EPOCA INDEP.,06/06/1983  ,62742.6841 ,62742.68  ,02        ,ANCASH       ,166
4    ,0208      ,CASMA                    ,ANCASH       ,-        ,-       ,21/10/1870  ,EPOCA INDEP.,227590.8018,227590.8  ,02        ,ANCASH       ,166
14   ,0404      ,CASTILLA                 ,AREQUIPA     ,-        ,-       ,EPOCA INDEP.,EPOCA INDEP.,692911.4257,692911.43 ,04        ,AREQUIPA     ,109
13   ,0904      ,CASTROVIRREYNA           ,HUANCAVELICA ,-        ,-       ,06/09/1920  ,EPOCA INDEP.,395269.606 ,395269.61 ,09        ,HUANCAVELICA ,94
20   ,0405      ,CAYLLOMA                 ,AREQUIPA     ,-        ,-       ,20/12/1999  ,EPOCA INDEP.,1410845.908,1410845.91,04        ,AREQUIPA     ,109
12   ,0603      ,CELENDIN                 ,CAJAMARCA    ,LEY      ,7855    ,27/12/1923  ,16/10/1933  ,265469.007 ,265469.01 ,06        ,CAJAMARCA    ,127
21   ,0101      ,CHACHAPOYAS              ,AMAZONAS     ,-        ,-       ,EPOCA INDEP.,EPOCA INDEP.,298037.2272,298037.23 ,01        ,AMAZONAS     ,84
6    ,1203      ,CHANCHAMAYO              ,JUNIN        ,LEY      ,24445   ,27/01/1871  ,14/01/1986  ,467686.1791,467686.18 ,12        ,JUNIN        ,123
3    ,1304      ,CHEPEN                   ,LA LIBERTAD  ,LEY      ,9222    ,18/04/1935  ,05/12/1940  ,115282.3327,115282.33 ,13        ,LA LIBERTAD  ,83
20   ,1401      ,CHICLAYO                 ,LAMBAYEQUE   ,DEC.     ,S/N     ,19/12/1906  ,30/07/1840  ,334599.0525,334599.05 ,14        ,LAMBAYEQUE   ,38
11   ,1102      ,CHINCHA                  ,ICA          ,LEY      ,11620   ,EPOCA INDEP.,22/09/1951  ,290803.7387,290803.74 ,11        ,ICA          ,43
8    ,0306      ,CHINCHEROS               ,APURIMAC     ,LEY      ,24167   ,19/11/1985  ,12/06/1985  ,150788.0108,150788.01 ,03        ,APURIMAC     ,80
19   ,0604      ,CHOTA                    ,CAJAMARCA    ,LEY      ,S/N     ,02/01/1857  ,02/01/1857  ,377270.6372,377270.64 ,06        ,CAJAMARCA    ,127
7    ,2104      ,CHUCUITO                 ,PUNO         ,-        ,-       ,EPOCA INDEP.,EPOCA INDEP.,397892.1691,397892.17 ,21        ,PUNO         ,109
8    ,0807      ,CHUMBIVILCAS             ,CUSCO        ,LEY      ,S/N     ,EPOCA INDEP.,02/01/1857  ,535593.1982,535593.2  ,08        ,CUSCO        ,108
9    ,1209      ,CHUPACA                  ,JUNIN        ,LEY      ,9274    ,05/10/1854  ,08/01/1941  ,116365.6821,116365.68 ,12        ,JUNIN        ,123
10   ,0905      ,CHURCAMPA                ,HUANCAVELICA ,LEY      ,13841   ,22/06/1962  ,11/01/1962  ,121798.4412,121798.44 ,09        ,HUANCAVELICA ,94
15   ,1202      ,CONCEPCION               ,JUNIN        ,-        ,-       ,28/06/1955  ,EPOCA INDEP.,224488.0364,224488.04 ,12        ,JUNIN        ,123
8    ,0406      ,CONDESUYOS               ,AREQUIPA     ,LEY      ,S/N     ,26/11/1917  ,02/01/1857  ,685288.2406,685288.24 ,04        ,AREQUIPA     ,109
3    ,2402      ,CONTRALMIRANTE VILLAR    ,TUMBES       ,LEY      ,9667    ,03/04/2006  ,25/11/1942  ,214653.616 ,214653.62 ,24        ,TUMBES       ,13
8    ,0605      ,CONTUMAZA                ,CAJAMARCA    ,LEY      ,15046   ,19/11/1888  ,05/06/1964  ,207828.7993,207828.8  ,06        ,CAJAMARCA    ,127
7    ,2501      ,CORONEL PORTILLO         ,UCAYALI      ,LEY      ,9815    ,02/07/1943  ,13/10/1900  ,3836958.812,3836958.81,25        ,UCAYALI      ,15
7    ,0209      ,CORONGO                  ,ANCASH       ,LEY      ,4662    ,21/11/1898  ,09/05/1923  ,101683.939 ,101683.94 ,02        ,ANCASH       ,166
6    ,0305      ,COTABAMBAS               ,APURIMAC     ,-        ,-       ,02/01/1857  ,EPOCA INDEP.,262307.4765,262307.48 ,03        ,APURIMAC     ,80
8    ,0801      ,CUSCO                    ,CUSCO        ,-        ,-       ,14/01/1942  ,EPOCA INDEP.,53018.37256,53018.37  ,08        ,CUSCO        ,108
15   ,0606      ,CUTERVO                  ,CAJAMARCA    ,LEY      ,S/N     ,EPOCA INDEP.,02/01/1857  ,303737.1272,303737.13 ,06        ,CAJAMARCA    ,127
8    ,1902      ,DANIEL ALCIDES CARRION   ,PASCO        ,LEY      ,11905   ,06/09/1920  ,04/12/1952  ,152075.221 ,152075.22 ,19        ,PASCO        ,28
6    ,1607      ,DATEM DEL MARA?N         ,LORETO       ,LEY      ,28593   ,07/02/1866  ,01/08/2005  ,4766879.448,4766879.45,16        ,LORETO       ,51
9    ,1003      ,DOS DE MAYO              ,HUANUCO      ,LEY      ,14072   ,02/01/1857  ,12/05/1962  ,145944.1728,145944.17 ,10        ,HUANUCO      ,76
5    ,2105      ,EL COLLAO                ,PUNO         ,-        ,-       ,29/09/1988  ,EPOCA INDEP.,568988.3428,568988.34 ,21        ,PUNO         ,109
5    ,2203      ,EL DORADO                ,SAN MARTIN   ,LEY      ,14060   ,29/01/1944  ,06/04/1962  ,129316.5919,129316.59 ,22        ,SAN MARTIN   ,77
8    ,0808      ,ESPINAR                  ,CUSCO        ,LEY      ,S/N     ,29/08/1834  ,29/08/1834  ,524984.6831,524984.68 ,08        ,CUSCO        ,108
6    ,1402      ,FERRE?FE                 ,LAMBAYEQUE   ,LEY      ,11590   ,17/02/1951  ,17/02/1951  ,158344.056 ,158344.06 ,14        ,LAMBAYEQUE   ,38
11   ,1802      ,GENERAL SANCHEZ CERRO    ,MOQUEGUA     ,--       ,-       ,30/09/1942  ,EPOCA INDEP.,575726.9331,575726.93 ,18        ,MOQUEGUA     ,20
4    ,1311      ,GRAN CHIMU               ,LA LIBERTAD  ,-        ,-       ,14/05/1876  ,EPOCA INDEP.,129246.1712,129246.17 ,13        ,LA LIBERTAD  ,83
14   ,0307      ,GRAU                     ,APURIMAC     ,LEY      ,9687    ,12/06/1985  ,11/12/1942  ,212996.4929,212996.49 ,03        ,APURIMAC     ,80
4    ,1004      ,HUACAYBAMBA              ,HUANUCO      ,LEY      ,24340   ,14/11/1985  ,14/11/1985  ,170377.693 ,170377.69 ,10        ,HUANUCO      ,76
3    ,0607      ,HUALGAYOC                ,CAJAMARCA    ,-        ,-       ,EPOCA INDEP.,EPOCA INDEP.,78993.24406,78993.24  ,06        ,CAJAMARCA    ,127
6    ,2204      ,HUALLAGA                 ,SAN MARTIN   ,LEY      ,14649   ,20/05/1936  ,13/09/1963  ,241703.4021,241703.4  ,22        ,SAN MARTIN   ,77
11   ,1005      ,HUAMALIES                ,HUANUCO      ,LEY      ,S/N     ,EPOCA INDEP.,02/01/1857  ,315852.742 ,315852.74 ,10        ,HUANUCO      ,76
15   ,0501      ,HUAMANGA                 ,AYACUCHO     ,-        ,-       ,15/07/1936  ,EPOCA INDEP.,295389.8811,295389.88 ,05        ,AYACUCHO     ,111
4    ,0503      ,HUANCA SANCOS            ,AYACUCHO     ,LEY      ,15410   ,11/11/1961  ,29/01/1965  ,283707.9164,283707.92 ,05        ,AYACUCHO     ,111
8    ,2003      ,HUANCABAMBA              ,PIURA        ,LEY      ,15248   ,29/01/1965  ,04/12/1964  ,429652.1086,429652.11 ,20        ,PIURA        ,64
8    ,2106      ,HUANCANE                 ,PUNO         ,-        ,-       ,EPOCA INDEP.,EPOCA INDEP.,284717.7965,284717.8  ,21        ,PUNO         ,109
19   ,0901      ,HUANCAVELICA             ,HUANCAVELICA ,LEY      ,9505    ,29/10/1953  ,12/01/1942  ,419358.1867,419358.19 ,09        ,HUANCAVELICA ,94
28   ,1201      ,HUANCAYO                 ,JUNIN        ,L.R.     ,342     ,16/01/1941  ,06/09/1920  ,373484.084 ,373484.08 ,12        ,JUNIN        ,123
8    ,0504      ,HUANTA                   ,AYACUCHO     ,LEY      ,12362   ,27/12/1926  ,20/06/1955  ,385929.9354,385929.94 ,05        ,AYACUCHO     ,111
11   ,1001      ,HUANUCO                  ,HUANUCO      ,LEY      ,S/N     ,10/05/1955  ,02/01/1857  ,407098.4978,407098.5  ,10        ,HUANUCO      ,76
12   ,1506      ,HUARAL                   ,LIMA         ,-        ,-       ,EPOC.INDEP. ,EPOC.INDEP. ,365745.2239,365745.22 ,15        ,LIMA         ,171
12   ,0201      ,HUARAZ                   ,ANCASH       ,LEY      ,12643   ,16/10/1933  ,02/02/1956  ,251023.8898,251023.89 ,02        ,ANCASH       ,166
16   ,0210      ,HUARI                    ,ANCASH       ,LEY      ,12313   ,EPOCA INDEP.,10/05/1955  ,279161.6132,279161.61 ,02        ,ANCASH       ,166
5    ,0211      ,HUARMEY                  ,ANCASH       ,LEY      ,24034   ,05/03/1936  ,20/12/1984  ,392513.3582,392513.36 ,02        ,ANCASH       ,166
32   ,1507      ,HUAROCHIRI               ,LIMA         ,LEY      ,15246   ,11/10/1954  ,04/12/1964  ,573400.8419,573400.84 ,15        ,LIMA         ,171
12   ,1508      ,HUAURA                   ,LIMA         ,-        ,-       ,EPOC.INDEP. ,EPOC.INDEP. ,492694.1257,492694.13 ,15        ,LIMA         ,171
10   ,0212      ,HUAYLAS                  ,ANCASH       ,LEY      ,4662    ,02/01/1857  ,09/05/1923  ,229027.783 ,229027.78 ,02        ,ANCASH       ,166
16   ,0906      ,HUAYTARA                 ,HUANCAVELICA ,-        ,-       ,26/01/1956  ,EPOCA INDEP.,646453.1791,646453.18 ,09        ,HUANCAVELICA ,94
14   ,1101      ,ICA                      ,ICA          ,LEY      ,S/N     ,18/05/1984  ,14/06/1876  ,781989.4431,781989.44 ,11        ,ICA          ,43
3    ,1803      ,ILO                      ,MOQUEGUA     ,D.L.     ,18298   ,EPOCA INDEP.,26/05/1970  ,136344.7733,136344.77 ,18        ,MOQUEGUA     ,20
6    ,0407      ,ISLAY                    ,AREQUIPA     ,LEY      ,S/N     ,03/01/1879  ,03/01/1879  ,384689.9919,384689.99 ,04        ,AREQUIPA     ,109
12   ,0608      ,JAEN                     ,CAJAMARCA    ,LEY      ,S/N     ,28/12/1943  ,02/01/1857  ,505726.5002,505726.5  ,06        ,CAJAMARCA    ,127
34   ,1204      ,JAUJA                    ,JUNIN        ,LEY      ,12638   ,02/01/1857  ,02/02/1956  ,435419.9203,435419.92 ,12        ,JUNIN        ,123
3    ,2303      ,JORGE BASADRE            ,TACNA        ,-        ,-       ,12/06/1961  ,EPOCA INDEP.,274085.9711,274085.97 ,23        ,TACNA        ,27
4    ,1305      ,JULCAN                   ,LA LIBERTAD  ,LEY      ,13659   ,19/06/1990  ,12/06/1961  ,111242.4124,111242.41 ,13        ,LA LIBERTAD  ,83
4    ,1205      ,JUNIN                    ,JUNIN        ,LEY      ,5516    ,EPOCA INDEP.,26/10/1926  ,237390.639 ,237390.64 ,12        ,JUNIN        ,123
10   ,0809      ,LA CONVENCION            ,CUSCO        ,LEY      ,S/N     ,17/03/1961  ,02/01/1857  ,3188238.473,3188238.47,08        ,CUSCO        ,108
8    ,0505      ,LA MAR                   ,AYACUCHO     ,LEY      ,10175   ,EPOCA INDEP.,17/01/1945  ,430659.4082,430659.41 ,05        ,AYACUCHO     ,111
11   ,0408      ,LA UNION                 ,AREQUIPA     ,-        ,-       ,19/11/1954  ,EPOCA INDEP.,489566.2744,489566.27 ,04        ,AREQUIPA     ,109
11   ,2205      ,LAMAS                    ,SAN MARTIN   ,LEY      ,S/N     ,16/10/1933  ,25/11/1876  ,467896.3764,467896.38 ,22        ,SAN MARTIN   ,77
12   ,1403      ,LAMBAYEQUE               ,LAMBAYEQUE   ,-        ,-       ,17/11/1894  ,EPOCA INDEP.,941287.6923,941287.69 ,14        ,LAMBAYEQUE   ,38
10   ,2107      ,LAMPA                    ,PUNO         ,-        ,-       ,EPOCA INDEP.,EPOCA INDEP.,574465.4322,574465.43 ,21        ,PUNO         ,109
7    ,1010      ,LAURICOCHA               ,HUANUCO      ,LEY      ,7665    ,12/05/1962  ,27/12/1932  ,192235.8518,192235.85 ,10        ,HUANUCO      ,76
6    ,1006      ,LEONCIO PRADO            ,HUANUCO      ,LEY      ,14777   ,27/05/1952  ,26/12/1963  ,491717.695 ,491717.7  ,10        ,HUANUCO      ,76
43   ,1501      ,LIMA                     ,LIMA         ,LEY      ,S/N     ,22/01/1943  ,29/10/1874  ,269974     ,269974    ,15        ,LIMA         ,171
5    ,1603      ,LORETO                   ,LORETO       ,LEY      ,9815    ,07/02/1866  ,02/07/1943  ,6854883.445,6854883.45,16        ,LORETO       ,51
21   ,0506      ,LUCANAS                  ,AYACUCHO     ,-        ,-       ,EPOCA INDEP.,EPOCA INDEP.,1446494.224,1446494.22,05        ,AYACUCHO     ,111
23   ,0105      ,LUYA                     ,AMAZONAS     ,LEY      ,S/N     ,16/08/1920  ,05/02/1861  ,324512.9726,324512.97 ,01        ,AMAZONAS     ,84
4    ,1702      ,MANU                     ,MADRE DE DIOS,LEY      ,1782    ,09/06/2000  ,26/12/1912  ,2881533.613,2881533.61,17        ,MADRE DE DIOS,11
3    ,1007      ,MARA?N                   ,HUANUCO      ,LEY      ,1595    ,31/10/1955  ,21/10/1912  ,494965.9728,494965.97 ,10        ,HUANUCO      ,76
5    ,2206      ,MARISCAL CACERES         ,SAN MARTIN   ,LEY      ,9097    ,24/01/1959  ,07/05/1940  ,1426188.171,1426188.17,22        ,SAN MARTIN   ,77
8    ,0213      ,MARISCAL LUZURIAGA       ,ANCASH       ,LEY      ,13426   ,28/10/1889  ,05/05/1960  ,73673.62191,73673.62  ,02        ,ANCASH       ,166
6    ,1801      ,MARISCAL NIETO           ,MOQUEGUA     ,-        ,-       ,08/11/1894  ,EPOCA INDEP.,868659.2711,868659.27 ,18        ,MOQUEGUA     ,20
4    ,1604      ,MARISCAL RAMON CASTILLA  ,LORETO       ,DEC.     ,S/N     ,02/07/1943  ,07/02/1866  ,3796987.89 ,3796987.89,16        ,LORETO       ,51
13   ,1601      ,MAYNAS                   ,LORETO       ,LEY      ,28362   ,08/06/1936  ,19/10/2004  ,12170565.8 ,12170565.8,16        ,LORETO       ,51
9    ,2108      ,MELGAR                   ,PUNO         ,-        ,-       ,EPOCA INDEP.,EPOCA INDEP.,657194.7503,657194.75 ,21        ,PUNO         ,109
4    ,2109      ,MOHO                     ,PUNO         ,LEY      ,25360   ,12/12/1991  ,12/12/1991  ,103544.1582,103544.16 ,21        ,PUNO         ,109
10   ,2004      ,MORROPON                 ,PIURA        ,LEY      ,8174    ,08/10/1840  ,31/01/1936  ,384324.5331,384324.53 ,20        ,PIURA        ,64
6    ,2201      ,MOYOBAMBA                ,SAN MARTIN   ,LEY      ,S/N     ,02/01/1857  ,02/01/1857  ,392696.455 ,392696.46 ,22        ,SAN MARTIN   ,77
5    ,1103      ,NAZCA                    ,ICA          ,LEY      ,2548    ,10/05/1955  ,19/11/1917  ,518745.1648,518745.16 ,11        ,ICA          ,43
10   ,0214      ,OCROS                    ,ANCASH       ,LEY      ,S/N     ,30/09/1941  ,02/01/1857  ,193492.383 ,193492.38 ,02        ,ANCASH       ,166
10   ,1306      ,OTUZCO                   ,LA LIBERTAD  ,DEC.     ,S/N     ,07/03/1964  ,17/12/1866  ,208386.5594,208386.56 ,13        ,LA LIBERTAD  ,83
7    ,1903      ,OXAPAMPA                 ,PASCO        ,LEY      ,13014   ,14/05/1876  ,17/06/1958  ,1784306.293,1784306.29,19        ,PASCO        ,28
6    ,1509      ,OYON                     ,LIMA         ,LEY      ,S/N     ,EPOC.INDEP. ,02/01/1857  ,187645.1149,187645.11 ,15        ,LIMA         ,171
5    ,1307      ,PACASMAYO                ,LA LIBERTAD  ,-        ,-       ,EPOCA INDEP.,EPOCA INDEP.,111825.4653,111825.47 ,13        ,LA LIBERTAD  ,83
4    ,1008      ,PACHITEA                 ,HUANUCO      ,LEY      ,2889    ,29/11/1918  ,29/11/1918  ,263590.9035,263590.9  ,10        ,HUANUCO      ,76
3    ,2503      ,PADRE ABAD               ,UCAYALI      ,LEY      ,26429   ,01/06/1982  ,05/01/1995  ,945016.4156,945016.42 ,25        ,UCAYALI      ,15
7    ,2005      ,PAITA                    ,PIURA        ,L.R.     ,315     ,EPOCA INDEP.,28/08/1920  ,170913.6046,170913.6  ,20        ,PIURA        ,64
11   ,0215      ,PALLASCA                 ,ANCASH       ,LEY      ,2971    ,02/01/1857  ,16/12/1918  ,207048.3514,207048.35 ,02        ,ANCASH       ,166
5    ,1104      ,PALPA                    ,ICA          ,LEY      ,11969   ,16/01/1953  ,16/01/1953  ,121702.2521,121702.25 ,11        ,ICA          ,43
8    ,0507      ,PARINACOCHAS             ,AYACUCHO     ,-        ,-       ,EPOCA INDEP.,EPOCA INDEP.,587306.9933,587306.99 ,05        ,AYACUCHO     ,111
9    ,0810      ,PARURO                   ,CUSCO        ,LEY      ,13203   ,02/01/1857  ,15/04/1959  ,197018.3479,197018.35 ,08        ,CUSCO        ,108
13   ,1901      ,PASCO                    ,PASCO        ,LEY      ,12292   ,27/11/1944  ,15/04/1955  ,475013.378 ,475013.38 ,19        ,PASCO        ,28
13   ,1308      ,PATAZ                    ,LA LIBERTAD  ,-        ,-       ,18/06/1987  ,EPOCA INDEP.,399547.9995,399548    ,13        ,LA LIBERTAD  ,83
10   ,0508      ,PAUCAR DEL SARA SARA     ,AYACUCHO     ,-        ,-       ,EPOCA INDEP.,EPOCA INDEP.,208321.471 ,208321.47 ,05        ,AYACUCHO     ,111
6    ,0811      ,PAUCARTAMBO              ,CUSCO        ,LEY      ,14116   ,EPOCA INDEP.,15/06/1962  ,579946.9753,579946.98 ,08        ,CUSCO        ,108
10   ,2207      ,PICOTA                   ,SAN MARTIN   ,LEY      ,12094   ,31/01/1944  ,07/04/1954  ,210749.9152,210749.92 ,22        ,SAN MARTIN   ,77
8    ,1105      ,PISCO                    ,ICA          ,LEY      ,S/N     ,08/03/1951  ,13/10/1900  ,394836.0616,394836.06 ,11        ,ICA          ,43
8    ,2001      ,PIURA                    ,PIURA        ,LEY      ,8231    ,19/02/1965  ,03/04/1936  ,598263.3811,598263.38 ,20        ,PIURA        ,64
4    ,0216      ,POMABAMBA                ,ANCASH       ,LEY      ,S/N     ,28/06/1955  ,28/08/1868  ,92220.62734,92220.63  ,02        ,ANCASH       ,166
5    ,1009      ,PUERTO INCA              ,HUANUCO      ,LEY      ,12640   ,19/11/1984  ,02/02/1956  ,1004069.79 ,1004069.79,10        ,HUANUCO      ,76
1    ,2001      ,PUIRA                    ,PIURA        ,LEY      ,5951    ,28/12/1927  ,28/12/1927  ,24287.59927,24287.6   ,20        ,PIURA        ,64
15   ,2101      ,PUNO                     ,PUNO         ,-        ,-       ,EPOCA INDEP.,EPOCA INDEP.,653760.3156,653760.32 ,21        ,PUNO         ,109
1    ,2504      ,PURUS                    ,UCAYALI      ,LEY      ,9815    ,02/07/1943  ,02/07/1943  ,1847225.675,1847225.68,25        ,UCAYALI      ,15
12   ,0812      ,QUISPICANCHI             ,CUSCO        ,LEY      ,11624   ,05/09/1940  ,02/10/1951  ,737522.1299,737522.13 ,08        ,CUSCO        ,108
10   ,0217      ,RECUAY                   ,ANCASH       ,L.R.     ,561     ,08/11/1963  ,12/10/1921  ,232861.4213,232861.42 ,02        ,ANCASH       ,166
11   ,1605      ,REQUENA                  ,LORETO       ,LEY      ,9815    ,02/07/1943  ,02/07/1943  ,5034385.193,5034385.19,16        ,LORETO       ,51
9    ,2208      ,RIOJA                    ,SAN MARTIN   ,LEY      ,24040   ,26/12/1984  ,26/12/1984  ,265242.9929,265242.99 ,22        ,SAN MARTIN   ,77
12   ,0106      ,RODRIGUEZ DE MENDOZA     ,AMAZONAS     ,LEY      ,7626    ,31/10/1932  ,31/10/1932  ,258853.0737,258853.07 ,01        ,AMAZONAS     ,84
5    ,2110      ,SAN ANTONIO DE PUTINA    ,PUNO         ,DEC.     ,S/N     ,17/03/1962  ,02/05/1854  ,315771.4097,315771.41 ,21        ,PUNO         ,109
7    ,0609      ,SAN IGNACIO              ,CAJAMARCA    ,LEY      ,15560   ,12/05/1965  ,12/05/1965  ,492734.9285,492734.93 ,06        ,CAJAMARCA    ,127
7    ,0610      ,SAN MARCOS               ,CAJAMARCA    ,LEY      ,23508   ,29/12/1984  ,11/12/1982  ,135538.2712,135538.27 ,06        ,CAJAMARCA    ,127
14   ,2209      ,SAN MARTIN               ,SAN MARTIN   ,LEY      ,8268    ,20/05/1936  ,08/05/1936  ,552655.8757,552655.88 ,22        ,SAN MARTIN   ,77
13   ,0611      ,SAN MIGUEL               ,CAJAMARCA    ,LEY      ,25042   ,02/01/1857  ,14/06/1989  ,254550.2354,254550.24 ,06        ,CAJAMARCA    ,127
4    ,0612      ,SAN PABLO                ,CAJAMARCA    ,LEY      ,23336   ,11/12/1981  ,11/12/1981  ,66711.19887,66711.2   ,06        ,CAJAMARCA    ,127
4    ,2111      ,SAN ROMAN                ,PUNO         ,-        ,-       ,28/02/1958  ,EPOCA INDEP.,228458.1519,228458.15 ,21        ,PUNO         ,109
8    ,1309      ,SANCHEZ CARRION          ,LA LIBERTAD  ,-        ,-       ,03/11/1900  ,EPOCA INDEP.,250187.3767,250187.38 ,13        ,LA LIBERTAD  ,83
10   ,2112      ,SANDIA                   ,PUNO         ,LEY      ,28509   ,02/05/1854  ,13/05/2005  ,1277741.687,1277741.69,21        ,PUNO         ,109
9    ,0218      ,SANTA                    ,ANCASH       ,-        ,-       ,15/04/1955  ,EPOCA INDEP.,398234.4524,398234.45 ,02        ,ANCASH       ,166
11   ,0613      ,SANTA CRUZ               ,CAJAMARCA    ,LEY      ,9607    ,21/04/1950  ,18/09/1942  ,138620.1573,138620.16 ,06        ,CAJAMARCA    ,127
8    ,1310      ,SANTIAGO DE CHUCO        ,LA LIBERTAD  ,LEY      ,2338    ,EPOCA INDEP.,13/11/1916  ,267531.5658,267531.57 ,13        ,LA LIBERTAD  ,83
8    ,1206      ,SATIPO                   ,JUNIN        ,LEY      ,9801    ,26/03/1965  ,29/01/1943  ,1914201.507,1914201.51,12        ,JUNIN        ,123
6    ,2008      ,SECHURA                  ,PIURA        ,LEY      ,15417   ,15/06/1920  ,29/01/1965  ,648768.635 ,648768.63 ,20        ,PIURA        ,64
10   ,0219      ,SIHUAS                   ,ANCASH       ,LEY      ,14152   ,14/03/1964  ,22/06/1962  ,145769.4005,145769.4  ,02        ,ANCASH       ,166
11   ,0509      ,SUCRE                    ,AYACUCHO     ,LEY      ,15231   ,08/07/1964  ,23/11/1964  ,178432.945 ,178432.95 ,05        ,AYACUCHO     ,111
8    ,2006      ,SULLANA                  ,PIURA        ,LEY      ,2603    ,10/11/1950  ,03/12/1917  ,532185.7536,532185.75 ,20        ,PIURA        ,64
10   ,2301      ,TACNA                    ,TACNA        ,LEY      ,13238   ,02/02/2001  ,08/06/1959  ,824806.2956,824806.3  ,23        ,TACNA        ,27
3    ,1703      ,TAHUAMANU                ,MADRE DE DIOS,LEY      ,13656   ,26/12/1912  ,07/06/1961  ,2003020.802,2003020.8 ,17        ,MADRE DE DIOS,11
6    ,2007      ,TALARA                   ,PIURA        ,LEY      ,818     ,31/10/1932  ,14/11/1908  ,295210.9224,295210.92 ,20        ,PIURA        ,64
4    ,1701      ,TAMBOPATA                ,MADRE DE DIOS,LEY      ,1782    ,26/12/1912  ,26/12/1912  ,3620032.154,3620032.15,17        ,MADRE DE DIOS,11
8    ,2304      ,TARATA                   ,TACNA        ,LEY      ,12136   ,12/01/1956  ,26/10/1954  ,277252.8769,277252.88 ,23        ,TACNA        ,27
9    ,1207      ,TARMA                    ,JUNIN        ,LEY      ,S/N     ,14/06/1958  ,02/01/1857  ,267058.1761,267058.18 ,12        ,JUNIN        ,123
16   ,0907      ,TAYACAJA                 ,HUANCAVELICA ,LEY      ,11585   ,08/01/1912  ,31/01/1951  ,336926.0054,336926.01 ,09        ,HUANCAVELICA ,94
5    ,2210      ,TOCACHE                  ,SAN MARTIN   ,LEY      ,24016   ,06/12/1984  ,06/12/1984  ,602785.5906,602785.59 ,22        ,SAN MARTIN   ,77
11   ,1301      ,TRUJILLO                 ,LA LIBERTAD  ,-        ,-       ,04/01/1879  ,EPOCA INDEP.,178395.6305,178395.63 ,13        ,LA LIBERTAD  ,83
6    ,2401      ,TUMBES                   ,TUMBES       ,-        ,-       ,18/06/1962  ,EPOCA INDEP.,178553.1025,178553.1  ,24        ,TUMBES       ,13
6    ,1606      ,UCAYALI                  ,LORETO       ,LEY      ,S/N     ,02/07/1943  ,02/01/1857  ,2970684.426,2970684.43,16        ,LORETO       ,51
7    ,0813      ,URUBAMBA                 ,CUSCO        ,LEY      ,9396    ,09/09/1905  ,01/10/1941  ,144731.6308,144731.63 ,08        ,CUSCO        ,108
7    ,0107      ,UTCUBAMBA                ,AMAZONAS     ,LEY      ,23843   ,14/11/1944  ,30/05/1984  ,399323.0071,399323.01 ,01        ,AMAZONAS     ,84
1    ,0510      ,VICTOR FAFARDO           ,AYACUCHO     ,LEY      ,S/N     ,02/01/1857  ,02/01/1857  ,26507.76817,26507.77  ,05        ,AYACUCHO     ,111
11   ,0510      ,VICTOR FAJARDO           ,AYACUCHO     ,LEY      ,1306    ,23/12/1986  ,14/11/1910  ,199897.7672,199897.77 ,05        ,AYACUCHO     ,111
8    ,0511      ,VILCAS HUAMAN            ,AYACUCHO     ,-        ,-       ,12/03/1986  ,EPOCA INDEP.,120829.2889,120829.29 ,05        ,AYACUCHO     ,111
3    ,1312      ,VIRU                     ,LA LIBERTAD  ,LEY      ,13792   ,04/01/1995  ,28/12/1961  ,319306.798 ,319306.8  ,13        ,LA LIBERTAD  ,83
8    ,1011      ,YAROWILCA                ,HUANUCO      ,LEY      ,S/N     ,06/09/1920  ,02/01/1857  ,76463.43415,76463.43  ,10        ,HUANUCO      ,76
10   ,1208      ,YAULI                    ,JUNIN        ,LEY      ,12097   ,13/01/1962  ,07/04/1954  ,363634.9977,363635    ,12        ,JUNIN        ,123
33   ,1510      ,YAUYOS                   ,LIMA         ,LEY      ,12644   ,26/03/1965  ,02/02/1956  ,699051.3838,699051.38 ,15        ,LIMA         ,171
8    ,0220      ,YUNGAY                   ,ANCASH       ,L.R.     ,176     ,02/01/1857  ,02/08/1920  ,136484.283 ,136484.28 ,02        ,ANCASH       ,166
7    ,2113      ,YUNGUYO                  ,PUNO         ,LEY      ,24042   ,28/12/1984  ,28/12/1984  ,42065.0116 ,42065.01  ,21        ,PUNO         ,109
4    ,2403      ,ZARUMILLA                ,TUMBES       ,LEY      ,S/N     ,25/11/1942  ,12/01/1871  ,75819.29502,75819.3   ,24        ,TUMBES       ,13
3    ,0104      ,CONDORCANQUI             ,AMAZONAS     ,LEY      ,23832   ,18/05/1984  ,18/05/1984  ,1792723.846,1792723.85,01        ,AMAZONAS     ,84