{
	"CONNNAME": "Sap Hana DB Demo",
	"DBMS": "HANA",
	"DRIVER": "com.sap.db.jdbc.Driver",
	"URL": "jdbc:sap://58.226.35.76:39017/hanademodb",
	"ID": "mss",
	"PW": "++Core2018",
	"OWNER": "mss",
	"SCHEMA" : "",
	"ETC": ""
}