{
 "CONNNAME" : "MariaDB connection" ,
 "DBMS" : "MYSQL" ,
 "DRIVER" : "org.mariadb.jdbc.Driver" ,
 "URL": "jdbc:mariadb://58.226.35.76:3306/quadmax" ,
 "ID" : "admin" ,
 "PW": "biadm" ,
 "OWNER" : "meOwnerTest" ,
 "ETC" : ""
}
