{   
 "CONNNAME" : "MSSQL Demo account" ,
 "DBMS" : "MSSQL" ,
 "DRIVER" : "com.microsoft.sqlserver.jdbc.SQLServerDriver" ,
 "URL": "jdbc:sqlserver://58.226.35.74:1433;DatabaseName=DEMO" ,
 "ID" : "sa" ,
 "PW": "++Core2018" ,
 "OWNER" : "dbo" ,
 "ETC" : "" 
}
