{
 "CONNNAME" : "Oracle Demo account" ,
 "DBMS" : "ORACLE" ,
 "DRIVER" : "oracle.jdbc.driver.OracleDriver" ,
 "URL": "jdbc:oracle:thin:@58.226.35.75:1521:xe" ,
 "ID" : "SMART_QUADMAX" ,
 "PW": "biadm" ,
 "OWNER" : "smart_QuadMax" ,
 "ETC" : ""
}
