{
 "CONNNAME" : "mysql76 connection" ,
 "DBMS" : "MYSQL" ,
 "DRIVER" : "org.mariadb.jdbc.Driver" ,
 "URL": "jdbc:mariadb://58.226.35.76:3306/quadmax_work" ,
 "ID" : "root" ,
 "PW": "++Core2018" ,
 "OWNER" : "meOwnerTest" ,
 "ETC" : "",
 "SCHEMA" : "QUADMAX_WORK."
}
