{
 "CONNNAME" : "MSSQL Demo account" ,
 "DBMS" : "MSSQL" ,
 "DRIVER" : "com.microsoft.sqlserver.jdbc.SQLServerDriver" ,
 "URL": "jdbc:sqlserver://127.0.0.1:1433;DatabaseName=databasename" ,
 "ID" : "user id" ,
 "PW": "password" ,
 "OWNER" : "dbo" ,
 "ETC" : ""
}
