SIDO_NAME,Address        ,SIG_CD,AMT   ,FREQ,SIG_ENG_NM                   ,SIG_KOR_NM,SIDO_CODE,REGION_CODE
서울특별시    ,서울특별시 종로구      ,11110 ,113890,250 ,Jongno-gu                    ,종로구       ,11       ,KR-11
서울특별시    ,서울특별시 중구       ,11140 ,313142,340 ,Jung-gu                      ,중구        ,11       ,KR-11
서울특별시    ,서울특별시 용산구      ,11170 ,244215,173 ,Yongsan-gu                   ,용산구       ,11       ,KR-11
서울특별시    ,서울특별시 성동구      ,11200 ,314964,101 ,Seongdong-gu                 ,성동구       ,11       ,KR-11
서울특별시    ,서울특별시 광진구      ,11215 ,291803,275 ,Gwangjin-gu                  ,광진구       ,11       ,KR-11
서울특별시    ,서울특별시 동대문구     ,11230 ,326512,301 ,Dongdaemun-gu                ,동대문구      ,11       ,KR-11
서울특별시    ,서울특별시 중랑구      ,11260 ,277113,224 ,Jungnang-gu                  ,중랑구       ,11       ,KR-11
서울특별시    ,서울특별시 성북구      ,11290 ,332949,329 ,Seongbuk-gu                  ,성북구       ,11       ,KR-11
서울특별시    ,서울특별시 강북구      ,11305 ,133434,176 ,Gangbuk-gu                   ,강북구       ,11       ,KR-11
서울특별시    ,서울특별시 도봉구      ,11320 ,287257,135 ,Dobong-gu                    ,도봉구       ,11       ,KR-11
서울특별시    ,서울특별시 노원구      ,11350 ,286495,129 ,Nowon-gu                     ,노원구       ,11       ,KR-11
서울특별시    ,서울특별시 은평구      ,11380 ,166060,158 ,Eunpyeong-gu                 ,은평구       ,11       ,KR-11
서울특별시    ,서울특별시 서대문구     ,11410 ,320857,238 ,Seodaemun-gu                 ,서대문구      ,11       ,KR-11
서울특별시    ,서울특별시 마포구      ,11440 ,313914,108 ,Mapo-gu                      ,마포구       ,11       ,KR-11
서울특별시    ,서울특별시 양천구      ,11470 ,292505,126 ,Yangcheon-gu                 ,양천구       ,11       ,KR-11
서울특별시    ,서울특별시 강서구      ,11500 ,307373,196 ,Gangseo-gu                   ,강서구       ,11       ,KR-11
서울특별시    ,서울특별시 구로구      ,11530 ,146136,238 ,Guro-gu                      ,구로구       ,11       ,KR-11
서울특별시    ,서울특별시 금천구      ,11545 ,185762,333 ,Geumcheon-gu                 ,금천구       ,11       ,KR-11
서울특별시    ,서울특별시 영등포구     ,11560 ,101156,254 ,Yeongdeungpo-gu              ,영등포구      ,11       ,KR-11
서울특별시    ,서울특별시 동작구      ,11590 ,136625,308 ,Dongjak-gu                   ,동작구       ,11       ,KR-11
서울특별시    ,서울특별시 관악구      ,11620 ,239398,103 ,Gwanak-gu                    ,관악구       ,11       ,KR-11
서울특별시    ,서울특별시 서초구      ,11650 ,331690,280 ,Seocho-gu                    ,서초구       ,11       ,KR-11
서울특별시    ,서울특별시 강남구      ,11680 ,139928,188 ,Gangnam-gu                   ,강남구       ,11       ,KR-11
서울특별시    ,서울특별시 송파구      ,11710 ,146044,167 ,Songpa-gu                    ,송파구       ,11       ,KR-11
서울특별시    ,서울특별시 강동구      ,11740 ,210445,121 ,Gangdong-gu                  ,강동구       ,11       ,KR-11
부산광역시    ,부산광역시 중구       ,26110 ,244380,156 ,Jung-gu                      ,중구        ,26       ,KR-26
부산광역시    ,부산광역시 서구       ,26140 ,260778,250 ,Seo-gu                       ,서구        ,26       ,KR-26
부산광역시    ,부산광역시 동구       ,26170 ,160781,230 ,Dong-gu                      ,동구        ,26       ,KR-26
부산광역시    ,부산광역시 영도구      ,26200 ,272218,231 ,Yeongdo-gu                   ,영도구       ,26       ,KR-26
부산광역시    ,부산광역시 부산진구     ,26230 ,178695,150 ,Busanjin-gu                  ,부산진구      ,26       ,KR-26
부산광역시    ,부산광역시 동래구      ,26260 ,332637,339 ,Dongnae-gu                   ,동래구       ,26       ,KR-26
부산광역시    ,부산광역시 남구       ,26290 ,100934,257 ,Nam-gu                       ,남구        ,26       ,KR-26
부산광역시    ,부산광역시 북구       ,26320 ,195743,294 ,Buk-gu                       ,북구        ,26       ,KR-26
부산광역시    ,부산광역시 해운대구     ,26350 ,303014,219 ,Haeundae-gu                  ,해운대구      ,26       ,KR-26
부산광역시    ,부산광역시 사하구      ,26380 ,167765,308 ,Saha-gu                      ,사하구       ,26       ,KR-26
부산광역시    ,부산광역시 금정구      ,26410 ,273520,113 ,Geumjeong-gu                 ,금정구       ,26       ,KR-26
부산광역시    ,부산광역시 강서구      ,26440 ,224361,254 ,Gangseo-gu                   ,강서구       ,26       ,KR-26
부산광역시    ,부산광역시 연제구      ,26470 ,207454,317 ,Yeonje-gu                    ,연제구       ,26       ,KR-26
부산광역시    ,부산광역시 수영구      ,26500 ,188422,174 ,Suyeong-gu                   ,수영구       ,26       ,KR-26
부산광역시    ,부산광역시 사상구      ,26530 ,268576,283 ,Sasang-gu                    ,사상구       ,26       ,KR-26
부산광역시    ,부산광역시 기장군      ,26710 ,138962,283 ,Gijang-gun                   ,기장군       ,26       ,KR-26
대구광역시    ,대구광역시 중구       ,27110 ,255227,238 ,Jung-gu                      ,중구        ,27       ,KR-27
대구광역시    ,대구광역시 동구       ,27140 ,167990,124 ,Dong-gu                      ,동구        ,27       ,KR-27
대구광역시    ,대구광역시 서구       ,27170 ,306152,336 ,Seo-gu                       ,서구        ,27       ,KR-27
대구광역시    ,대구광역시 남구       ,27200 ,180365,293 ,Nam-gu                       ,남구        ,27       ,KR-27
대구광역시    ,대구광역시 북구       ,27230 ,116589,303 ,Buk-gu                       ,북구        ,27       ,KR-27
대구광역시    ,대구광역시 수성구      ,27260 ,327320,105 ,Suseong-gu                   ,수성구       ,27       ,KR-27
대구광역시    ,대구광역시 달서구      ,27290 ,231309,121 ,Dalseo-gu                    ,달서구       ,27       ,KR-27
대구광역시    ,대구광역시 달성군      ,27710 ,211530,325 ,Dalseong-gun                 ,달성군       ,27       ,KR-27
인천광역시    ,인천광역시 중구       ,28110 ,230738,186 ,Jung-gu                      ,중구        ,28       ,KR-28
인천광역시    ,인천광역시 동구       ,28140 ,177117,184 ,Dong-gu                      ,동구        ,28       ,KR-28
인천광역시    ,인천광역시 남구       ,28170 ,294741,194 ,Nam-gu                       ,남구        ,28       ,KR-28
인천광역시    ,인천광역시 연수구      ,28185 ,207263,187 ,Yeonsu-gu                    ,연수구       ,28       ,KR-28
인천광역시    ,인천광역시 남동구      ,28200 ,239262,217 ,Namdong-gu                   ,남동구       ,28       ,KR-28
인천광역시    ,인천광역시 부평구      ,28237 ,321995,116 ,Bupyeong-gu                  ,부평구       ,28       ,KR-28
인천광역시    ,인천광역시 계양구      ,28245 ,194352,201 ,Gyeyang-gu                   ,계양구       ,28       ,KR-28
인천광역시    ,인천광역시 서구       ,28260 ,254246,130 ,Seo-gu                       ,서구        ,28       ,KR-28
인천광역시    ,인천광역시 강화군      ,28710 ,195774,154 ,Ganghwa-gun                  ,강화군       ,28       ,KR-28
인천광역시    ,인천광역시 옹진군      ,28720 ,302695,324 ,Ongjin-gun                   ,옹진군       ,28       ,KR-28
광주광역시    ,광주광역시 동구       ,29110 ,249310,221 ,Dong-gu                      ,동구        ,29       ,KR-29
광주광역시    ,광주광역시 서구       ,29140 ,207513,201 ,Seo-gu                       ,서구        ,29       ,KR-29
광주광역시    ,광주광역시 남구       ,29155 ,334385,169 ,Nam-gu                       ,남구        ,29       ,KR-29
광주광역시    ,광주광역시 북구       ,29170 ,300965,119 ,Buk-gu                       ,북구        ,29       ,KR-29
광주광역시    ,광주광역시 광산구      ,29200 ,159080,112 ,Gwangsan-gu                  ,광산구       ,29       ,KR-29
대전광역시    ,대전광역시 동구       ,30110 ,226734,266 ,Dong-gu                      ,동구        ,30       ,KR-30
대전광역시    ,대전광역시 중구       ,30140 ,334541,287 ,Jung-gu                      ,중구        ,30       ,KR-30
대전광역시    ,대전광역시 서구       ,30170 ,304040,276 ,Seo-gu                       ,서구        ,30       ,KR-30
대전광역시    ,대전광역시 유성구      ,30200 ,117218,275 ,Yuseong-gu                   ,유성구       ,30       ,KR-30
대전광역시    ,대전광역시 대덕구      ,30230 ,258632,103 ,Daedeok-gu                   ,대덕구       ,30       ,KR-30
울산광역시    ,울산광역시 중구       ,31110 ,280515,315 ,Jung-gu                      ,중구        ,31       ,KR-31
울산광역시    ,울산광역시 남구       ,31140 ,249112,251 ,Nam-gu                       ,남구        ,31       ,KR-31
울산광역시    ,울산광역시 동구       ,31170 ,299703,163 ,Dong-gu                      ,동구        ,31       ,KR-31
울산광역시    ,울산광역시 북구       ,31200 ,121842,287 ,Buk-gu                       ,북구        ,31       ,KR-31
울산광역시    ,울산광역시 울주군      ,31710 ,319402,130 ,Ulju-gun                     ,울주군       ,31       ,KR-31
세종특별자치시  ,세종특별자치시 세종특별자치시,36110 ,282336,189 ,Sejong-si                    ,세종특별자치시   ,36       ,KR-36
경기도      ,경기도 수원시 장안구    ,41111 ,241233,244 ,"Jangan-gu, Suwon-si"        ,수원시 장안구   ,41       ,KR-41
경기도      ,경기도 수원시 권선구    ,41113 ,146701,172 ,"Gwonseon-gu, Suwon-si"      ,수원시 권선구   ,41       ,KR-41
경기도      ,경기도 수원시 팔달구    ,41115 ,137302,281 ,"Paldal-gu, Suwon-si"        ,수원시 팔달구   ,41       ,KR-41
경기도      ,경기도 수원시 영통구    ,41117 ,175478,331 ,"Yeongtong-gu, Suwon-si"     ,수원시 영통구   ,41       ,KR-41
경기도      ,경기도 성남시 수정구    ,41131 ,227829,331 ,"Sujeong-gu, Seongnam-si"    ,성남시 수정구   ,41       ,KR-41
경기도      ,경기도 성남시 중원구    ,41133 ,295491,148 ,"Jungwon-gu, Seongnam-si"    ,성남시 중원구   ,41       ,KR-41
경기도      ,경기도 성남시 분당구    ,41135 ,217048,247 ,"Bundang-gu, Seongnam-si"    ,성남시 분당구   ,41       ,KR-41
경기도      ,경기도 의정부시       ,41150 ,129375,225 ,Uijeongbu-si                 ,의정부시      ,41       ,KR-41
경기도      ,경기도 안양시만안구     ,41171 ,265423,118 ,"Manan-gu, Anyang-si"        ,안양시만안구    ,41       ,KR-41
경기도      ,경기도 안양시동안구     ,41173 ,149362,278 ,"Dongan-gu, Anyang-si"       ,안양시동안구    ,41       ,KR-41
경기도      ,경기도 부천시        ,41190 ,101491,282 ,Bucheon-si                   ,부천시       ,41       ,KR-41
경기도      ,경기도 광명시        ,41210 ,275669,309 ,Gwangmyeong-si               ,광명시       ,41       ,KR-41
경기도      ,경기도 평택시        ,41220 ,157916,145 ,Pyeongtaek-si                ,평택시       ,41       ,KR-41
경기도      ,경기도 동두천시       ,41250 ,103615,291 ,Dongducheon-si               ,동두천시      ,41       ,KR-41
경기도      ,경기도 안산시상록구     ,41271 ,236989,246 ,"Sangnok-gu, Ansan-si"       ,안산시상록구    ,41       ,KR-41
경기도      ,경기도 안산시단원구     ,41273 ,188174,303 ,"Danwon-gu, Ansan-si"        ,안산시단원구    ,41       ,KR-41
경기도      ,경기도 고양시덕양구     ,41281 ,241774,141 ,"Deogyang-gu, Goyang-si"     ,고양시덕양구    ,41       ,KR-41
경기도      ,경기도 고양시일산동구    ,41285 ,312173,116 ,"Ilsandong-gu, Goyang-si"    ,고양시일산동구   ,41       ,KR-41
경기도      ,경기도 고양시일산서구    ,41287 ,149801,127 ,"Ilsanseo-gu, Goyang-si"     ,고양시일산서구   ,41       ,KR-41
경기도      ,경기도 과천시        ,41290 ,294400,320 ,Gwacheon-si                  ,과천시       ,41       ,KR-41
경기도      ,경기도 구리시        ,41310 ,178369,243 ,Guri-si                      ,구리시       ,41       ,KR-41
경기도      ,경기도 남양주시       ,41360 ,173549,191 ,Namyangju-si                 ,남양주시      ,41       ,KR-41
경기도      ,경기도 오산시        ,41370 ,326762,150 ,Osan-si                      ,오산시       ,41       ,KR-41
경기도      ,경기도 시흥시        ,41390 ,123327,189 ,Siheung-si                   ,시흥시       ,41       ,KR-41
경기도      ,경기도 군포시        ,41410 ,329808,202 ,Gunpo-si                     ,군포시       ,41       ,KR-41
경기도      ,경기도 의왕시        ,41430 ,234521,209 ,Uiwang-si                    ,의왕시       ,41       ,KR-41
경기도      ,경기도 하남시        ,41450 ,327549,322 ,Hanam-si                     ,하남시       ,41       ,KR-41
경기도      ,경기도 용인시처인구     ,41461 ,140312,253 ,"Cheoin-gu, Yongin-si"       ,용인시처인구    ,41       ,KR-41
경기도      ,경기도 용인시기흥구     ,41463 ,300815,315 ,"Giheung-gu, Yongin-si"      ,용인시기흥구    ,41       ,KR-41
경기도      ,경기도 용인시수지구     ,41465 ,248821,315 ,"Suji-gu, Yongin-si"         ,용인시수지구    ,41       ,KR-41
경기도      ,경기도 파주시        ,41480 ,168091,290 ,Paju-si                      ,파주시       ,41       ,KR-41
경기도      ,경기도 이천시        ,41500 ,258052,299 ,Icheon-si                    ,이천시       ,41       ,KR-41
경기도      ,경기도 안성시        ,41550 ,245882,311 ,Anseong-si                   ,안성시       ,41       ,KR-41
경기도      ,경기도 김포시        ,41570 ,195639,202 ,Gimpo-si                     ,김포시       ,41       ,KR-41
경기도      ,경기도 화성시        ,41590 ,238813,103 ,Hwaseong-si                  ,화성시       ,41       ,KR-41
경기도      ,경기도 광주시        ,41610 ,179871,226 ,Gwangju-si                   ,광주시       ,41       ,KR-41
경기도      ,경기도 양주시        ,41630 ,153273,213 ,Yangju-si                    ,양주시       ,41       ,KR-41
경기도      ,경기도 포천시        ,41650 ,166452,142 ,Pocheon-si                   ,포천시       ,41       ,KR-41
경기도      ,경기도 여주시        ,41670 ,271062,186 ,Yeoju-si                     ,여주시       ,41       ,KR-41
경기도      ,경기도 연천군        ,41800 ,206231,264 ,Yeoncheon-gun                ,연천군       ,41       ,KR-41
경기도      ,경기도 가평군        ,41820 ,214121,102 ,Gapyeong-gun                 ,가평군       ,41       ,KR-41
경기도      ,경기도 양평군        ,41830 ,296017,147 ,Yangpyeong-gun               ,양평군       ,41       ,KR-41
강원도      ,강원도 춘천시        ,42110 ,245387,333 ,Chuncheon-si                 ,춘천시       ,42       ,KR-42
강원도      ,강원도 원주시        ,42130 ,154806,246 ,Wonju-si                     ,원주시       ,42       ,KR-42
강원도      ,강원도 강릉시        ,42150 ,156286,325 ,Gangneung-si                 ,강릉시       ,42       ,KR-42
강원도      ,강원도 동해시        ,42170 ,169515,145 ,Donghae-si                   ,동해시       ,42       ,KR-42
강원도      ,강원도 태백시        ,42190 ,328024,123 ,Taebaek-si                   ,태백시       ,42       ,KR-42
강원도      ,강원도 속초시        ,42210 ,142203,159 ,Sokcho-si                    ,속초시       ,42       ,KR-42
강원도      ,강원도 삼척시        ,42230 ,241385,173 ,Samcheok-si                  ,삼척시       ,42       ,KR-42
강원도      ,강원도 홍천군        ,42720 ,310949,130 ,Hongcheon-gun                ,홍천군       ,42       ,KR-42
강원도      ,강원도 횡성군        ,42730 ,150663,263 ,Hoengseong-gun               ,횡성군       ,42       ,KR-42
강원도      ,강원도 영월군        ,42750 ,222038,237 ,Yeongwol-gun                 ,영월군       ,42       ,KR-42
강원도      ,강원도 평창군        ,42760 ,295738,243 ,Pyeongchang-gun              ,평창군       ,42       ,KR-42
강원도      ,강원도 정선군        ,42770 ,227489,129 ,Jeongseon-gun                ,정선군       ,42       ,KR-42
강원도      ,강원도 철원군        ,42780 ,181640,135 ,Cheorwon-gun                 ,철원군       ,42       ,KR-42
강원도      ,강원도 화천군        ,42790 ,246815,166 ,Hwacheon-gun                 ,화천군       ,42       ,KR-42
강원도      ,강원도 양구군        ,42800 ,328001,334 ,Yanggu-gun                   ,양구군       ,42       ,KR-42
강원도      ,강원도 인제군        ,42810 ,265000,311 ,Inje-gun                     ,인제군       ,42       ,KR-42
강원도      ,강원도 고성군        ,42820 ,276136,229 ,Goseong-gun                  ,고성군       ,42       ,KR-42
강원도      ,강원도 양양군        ,42830 ,288614,249 ,Yangyang-gun                 ,양양군       ,42       ,KR-42
충청북도     ,충청북도 청주시 상당구   ,43111 ,202977,183 ,"Sangdang-gu, Cheongju-si"   ,청주시 상당구   ,43       ,KR-43
충청북도     ,충청북도 청주시 서원구   ,43112 ,194511,310 ,"Seowon-gu, Cheongju-si"     ,청주시 서원구   ,43       ,KR-43
충청북도     ,충청북도 청주시 흥덕구   ,43113 ,275221,141 ,"Heungdeok-gu, Cheongju-si"  ,청주시 흥덕구   ,43       ,KR-43
충청북도     ,충청북도 청주시 청원구   ,43114 ,306227,295 ,"Cheongwon-gu, Cheongju-si"  ,청주시 청원구   ,43       ,KR-43
충청북도     ,충청북도 충주시       ,43130 ,220825,288 ,Chungju-si                   ,충주시       ,43       ,KR-43
충청북도     ,충청북도 제천시       ,43150 ,261140,138 ,Jecheon-si                   ,제천시       ,43       ,KR-43
충청북도     ,충청북도 보은군       ,43720 ,323073,288 ,Boeun-gun                    ,보은군       ,43       ,KR-43
충청북도     ,충청북도 옥천군       ,43730 ,277432,306 ,Okcheon-gun                  ,옥천군       ,43       ,KR-43
충청북도     ,충청북도 영동군       ,43740 ,319940,288 ,Yeongdong-gun                ,영동군       ,43       ,KR-43
충청북도     ,충청북도 증평군       ,43745 ,174746,149 ,Jeungpyeong-gun              ,증평군       ,43       ,KR-43
충청북도     ,충청북도 진천군       ,43750 ,117186,324 ,Jincheon-gun                 ,진천군       ,43       ,KR-43
충청북도     ,충청북도 괴산군       ,43760 ,337582,311 ,Goesan-gun                   ,괴산군       ,43       ,KR-43
충청북도     ,충청북도 음성군       ,43770 ,252081,269 ,Eumseong-gun                 ,음성군       ,43       ,KR-43
충청북도     ,충청북도 단양군       ,43800 ,249048,313 ,Danyang-gun                  ,단양군       ,43       ,KR-43
충청남도     ,충청남도 천안시동남구    ,44131 ,335675,308 ,"Dongnam-gu, Cheonan-si"     ,천안시동남구    ,44       ,KR-44
충청남도     ,충청남도 천안시서북구    ,44133 ,186547,329 ,"Seobuk-gu, Cheonan-si"      ,천안시서북구    ,44       ,KR-44
충청남도     ,충청남도 공주시       ,44150 ,247464,290 ,Gongju-si                    ,공주시       ,44       ,KR-44
충청남도     ,충청남도 보령시       ,44180 ,338420,231 ,Boryeong-si                  ,보령시       ,44       ,KR-44
충청남도     ,충청남도 아산시       ,44200 ,106188,174 ,Asan-si                      ,아산시       ,44       ,KR-44
충청남도     ,충청남도 서산시       ,44210 ,257187,110 ,Seosan-si                    ,서산시       ,44       ,KR-44
충청남도     ,충청남도 논산시       ,44230 ,299499,160 ,Nonsan-si                    ,논산시       ,44       ,KR-44
충청남도     ,충청남도 계룡시       ,44250 ,315479,140 ,Gyeryong-si                  ,계룡시       ,44       ,KR-44
충청남도     ,충청남도 당진시       ,44270 ,313691,180 ,Dangjin-si                   ,당진시       ,44       ,KR-44
충청남도     ,충청남도 금산군       ,44710 ,142237,239 ,Geumsan-gun                  ,금산군       ,44       ,KR-44
충청남도     ,충청남도 부여군       ,44760 ,302053,280 ,Buyeo-gun                    ,부여군       ,44       ,KR-44
충청남도     ,충청남도 서천군       ,44770 ,201019,290 ,Seocheon-gun                 ,서천군       ,44       ,KR-44
충청남도     ,충청남도 청양군       ,44790 ,156376,138 ,Cheongyang-gun               ,청양군       ,44       ,KR-44
충청남도     ,충청남도 홍성군       ,44800 ,202740,281 ,Hongseong-gun                ,홍성군       ,44       ,KR-44
충청남도     ,충청남도 예산군       ,44810 ,252138,101 ,Yesan-gun                    ,예산군       ,44       ,KR-44
충청남도     ,충청남도 태안군       ,44825 ,240209,217 ,Taean-gun                    ,태안군       ,44       ,KR-44
전라북도     ,전라북도 전주시완산구    ,45111 ,225947,161 ,"Wansan-gu, Jeonju-si"       ,전주시완산구    ,45       ,KR-45
전라북도     ,전라북도 전주시덕진구    ,45113 ,189126,297 ,"Deokjin-gu, Jeonju-si"      ,전주시덕진구    ,45       ,KR-45
전라북도     ,전라북도 군산시       ,45130 ,250172,171 ,Gunsan-si                    ,군산시       ,45       ,KR-45
전라북도     ,전라북도 익산시       ,45140 ,177390,303 ,Iksan-si                     ,익산시       ,45       ,KR-45
전라북도     ,전라북도 정읍시       ,45180 ,211974,229 ,Jeongeup-si                  ,정읍시       ,45       ,KR-45
전라북도     ,전라북도 남원시       ,45190 ,302961,102 ,Namwon-si                    ,남원시       ,45       ,KR-45
전라북도     ,전라북도 김제시       ,45210 ,101981,236 ,Gimje-si                     ,김제시       ,45       ,KR-45
전라북도     ,전라북도 완주군       ,45710 ,281370,277 ,Wanju-gun                    ,완주군       ,45       ,KR-45
전라북도     ,전라북도 진안군       ,45720 ,157390,289 ,Jinan-gun                    ,진안군       ,45       ,KR-45
전라북도     ,전라북도 무주군       ,45730 ,307930,203 ,Muju-gun                     ,무주군       ,45       ,KR-45
전라북도     ,전라북도 장수군       ,45740 ,327577,272 ,Jangsu-gun                   ,장수군       ,45       ,KR-45
전라북도     ,전라북도 임실군       ,45750 ,274169,253 ,Imsil-gun                    ,임실군       ,45       ,KR-45
전라북도     ,전라북도 순창군       ,45770 ,189730,200 ,Sunchang-gun                 ,순창군       ,45       ,KR-45
전라북도     ,전라북도 고창군       ,45790 ,225897,101 ,Gochang-gun                  ,고창군       ,45       ,KR-45
전라북도     ,전라북도 부안군       ,45800 ,190583,293 ,Buan-gun                     ,부안군       ,45       ,KR-45
전라남도     ,전라남도 목포시       ,46110 ,265054,206 ,Mokpo-si                     ,목포시       ,46       ,KR-46
전라남도     ,전라남도 여수시       ,46130 ,252022,295 ,Yeosu-si                     ,여수시       ,46       ,KR-46
전라남도     ,전라남도 순천시       ,46150 ,326462,285 ,Suncheon-si                  ,순천시       ,46       ,KR-46
전라남도     ,전라남도 나주시       ,46170 ,195349,190 ,Naju-si                      ,나주시       ,46       ,KR-46
전라남도     ,전라남도 광양시       ,46230 ,160672,171 ,Gwangyang-si                 ,광양시       ,46       ,KR-46
전라남도     ,전라남도 담양군       ,46710 ,286935,209 ,Damyang-gun                  ,담양군       ,46       ,KR-46
전라남도     ,전라남도 곡성군       ,46720 ,298328,244 ,Gokseong-gun                 ,곡성군       ,46       ,KR-46
전라남도     ,전라남도 구례군       ,46730 ,252585,293 ,Gurye-gun                    ,구례군       ,46       ,KR-46
전라남도     ,전라남도 고흥군       ,46770 ,132473,278 ,Goheung-gun                  ,고흥군       ,46       ,KR-46
전라남도     ,전라남도 보성군       ,46780 ,207426,107 ,Boseong-gun                  ,보성군       ,46       ,KR-46
전라남도     ,전라남도 화순군       ,46790 ,143828,215 ,Hwasun-gun                   ,화순군       ,46       ,KR-46
전라남도     ,전라남도 장흥군       ,46800 ,102711,179 ,Jangheung-gun                ,장흥군       ,46       ,KR-46
전라남도     ,전라남도 강진군       ,46810 ,142250,288 ,Gangjin-gun                  ,강진군       ,46       ,KR-46
전라남도     ,전라남도 해남군       ,46820 ,170405,233 ,Haenam-gun                   ,해남군       ,46       ,KR-46
전라남도     ,전라남도 영암군       ,46830 ,267655,232 ,Yeongam-gun                  ,영암군       ,46       ,KR-46
전라남도     ,전라남도 무안군       ,46840 ,301520,152 ,Muan-gun                     ,무안군       ,46       ,KR-46
전라남도     ,전라남도 함평군       ,46860 ,338435,290 ,Hampyeong-gun                ,함평군       ,46       ,KR-46
전라남도     ,전라남도 영광군       ,46870 ,173640,292 ,Yeonggwang-gun               ,영광군       ,46       ,KR-46
전라남도     ,전라남도 장성군       ,46880 ,182170,102 ,Jangseong-gun                ,장성군       ,46       ,KR-46
전라남도     ,전라남도 완도군       ,46890 ,167006,229 ,Wando-gun                    ,완도군       ,46       ,KR-46
전라남도     ,전라남도 진도군       ,46900 ,280005,190 ,Jindo-gun                    ,진도군       ,46       ,KR-46
전라남도     ,전라남도 신안군       ,46910 ,206338,306 ,Sinan-gun                    ,신안군       ,46       ,KR-46
경상북도     ,경상북도 포항시 남구    ,47111 ,292422,334 ,"Nam-gu, Pohang-si"          ,포항시 남구    ,47       ,KR-47
경상북도     ,경상북도 포항시 북구    ,47113 ,228301,131 ,"Buk-gu, Pohang-si"          ,포항시 북구    ,47       ,KR-47
경상북도     ,경상북도 경주시       ,47130 ,168444,154 ,Gyeongju-si                  ,경주시       ,47       ,KR-47
경상북도     ,경상북도 김천시       ,47150 ,222617,158 ,Gimcheon-si                  ,김천시       ,47       ,KR-47
경상북도     ,경상북도 안동시       ,47170 ,290987,192 ,Andong-si                    ,안동시       ,47       ,KR-47
경상북도     ,경상북도 구미시       ,47190 ,251753,185 ,Gumi-si                      ,구미시       ,47       ,KR-47
경상북도     ,경상북도 영주시       ,47210 ,221402,157 ,Yeongju-si                   ,영주시       ,47       ,KR-47
경상북도     ,경상북도 영천시       ,47230 ,181776,143 ,Yeongcheon-si                ,영천시       ,47       ,KR-47
경상북도     ,경상북도 상주시       ,47250 ,233568,189 ,Sangju-si                    ,상주시       ,47       ,KR-47
경상북도     ,경상북도 문경시       ,47280 ,164211,335 ,Mungyeong-si                 ,문경시       ,47       ,KR-47
경상북도     ,경상북도 경산시       ,47290 ,337891,171 ,Gyeongsan-si                 ,경산시       ,47       ,KR-47
경상북도     ,경상북도 군위군       ,47720 ,101735,270 ,Gunwi-gun                    ,군위군       ,47       ,KR-47
경상북도     ,경상북도 의성군       ,47730 ,311011,215 ,Uiseong-gun                  ,의성군       ,47       ,KR-47
경상북도     ,경상북도 청송군       ,47750 ,281228,316 ,Cheongsong-gun               ,청송군       ,47       ,KR-47
경상북도     ,경상북도 영양군       ,47760 ,272524,306 ,Yeongyang-gun                ,영양군       ,47       ,KR-47
경상북도     ,경상북도 영덕군       ,47770 ,262832,227 ,Yeongdeok-gun                ,영덕군       ,47       ,KR-47
경상북도     ,경상북도 청도군       ,47820 ,337439,222 ,Cheongdo-gun                 ,청도군       ,47       ,KR-47
경상북도     ,경상북도 고령군       ,47830 ,207428,130 ,Goryeong-gun                 ,고령군       ,47       ,KR-47
경상북도     ,경상북도 성주군       ,47840 ,177503,319 ,Seongju-gun                  ,성주군       ,47       ,KR-47
경상북도     ,경상북도 칠곡군       ,47850 ,234607,107 ,Chilgok-gun                  ,칠곡군       ,47       ,KR-47
경상북도     ,경상북도 예천군       ,47900 ,152723,112 ,Yecheon-gun                  ,예천군       ,47       ,KR-47
경상북도     ,경상북도 봉화군       ,47920 ,209806,184 ,Bonghwa-gun                  ,봉화군       ,47       ,KR-47
경상북도     ,경상북도 울진군       ,47930 ,332228,174 ,Uljin-gun                    ,울진군       ,47       ,KR-47
경상북도     ,경상북도 울릉군       ,47940 ,292310,242 ,Ulleung-gun                  ,울릉군       ,47       ,KR-47
경상남도     ,경상남도 창원시 의창구   ,48121 ,265585,171 ,"Uichang-gu, Changwon-si"    ,창원시 의창구   ,48       ,KR-48
경상남도     ,경상남도 창원시 성산구   ,48123 ,181604,198 ,"Seongsan-gu, Changwon-si"   ,창원시 성산구   ,48       ,KR-48
경상남도     ,경상남도 창원시 마산합포구 ,48125 ,266873,101 ,"Masanhappo-gu, Changwon-si" ,창원시 마산합포구 ,48       ,KR-48
경상남도     ,경상남도 창원시 마산회원구 ,48127 ,172872,224 ,"Masanhoewon-gu, Changwon-si",창원시 마산회원구 ,48       ,KR-48
경상남도     ,경상남도 창원시 진해구   ,48129 ,115905,106 ,"Jinhae-gu, Changwon-si"     ,창원시 진해구   ,48       ,KR-48
경상남도     ,경상남도 진주시       ,48170 ,138026,124 ,Jinju-si                     ,진주시       ,48       ,KR-48
경상남도     ,경상남도 통영시       ,48220 ,268090,256 ,Tongyeong-si                 ,통영시       ,48       ,KR-48
경상남도     ,경상남도 사천시       ,48240 ,253285,151 ,Sacheon-si                   ,사천시       ,48       ,KR-48
경상남도     ,경상남도 김해시       ,48250 ,152529,149 ,Gimhae-si                    ,김해시       ,48       ,KR-48
경상남도     ,경상남도 밀양시       ,48270 ,273521,336 ,Miryang-si                   ,밀양시       ,48       ,KR-48
경상남도     ,경상남도 거제시       ,48310 ,335297,124 ,Geoje-si                     ,거제시       ,48       ,KR-48
경상남도     ,경상남도 양산시       ,48330 ,268395,238 ,Yangsan-si                   ,양산시       ,48       ,KR-48
경상남도     ,경상남도 의령군       ,48720 ,328669,109 ,Uiryeong-gun                 ,의령군       ,48       ,KR-48
경상남도     ,경상남도 함안군       ,48730 ,150887,159 ,Haman-gun                    ,함안군       ,48       ,KR-48
경상남도     ,경상남도 창녕군       ,48740 ,139877,212 ,Changnyeong-gun              ,창녕군       ,48       ,KR-48
경상남도     ,경상남도 고성군       ,48820 ,319712,283 ,Goseong-gun                  ,고성군       ,48       ,KR-48
경상남도     ,경상남도 남해군       ,48840 ,126094,337 ,Namhae-gun                   ,남해군       ,48       ,KR-48
경상남도     ,경상남도 하동군       ,48850 ,294411,238 ,Hadong-gun                   ,하동군       ,48       ,KR-48
경상남도     ,경상남도 산청군       ,48860 ,230624,172 ,Sancheong-gun                ,산청군       ,48       ,KR-48
경상남도     ,경상남도 함양군       ,48870 ,156060,159 ,Hamyang-gun                  ,함양군       ,48       ,KR-48
경상남도     ,경상남도 거창군       ,48880 ,182300,133 ,Geochang-gun                 ,거창군       ,48       ,KR-48
경상남도     ,경상남도 합천군       ,48890 ,146938,203 ,Hapcheon-gun                 ,합천군       ,48       ,KR-48
제주특별자치도  ,제주특별자치도 제주시    ,50110 ,146066,248 ,Jeju-si                      ,제주시       ,50       ,KR-50
제주특별자치도  ,제주특별자치도 서귀포시   ,50130 ,251526,316 ,Seogwipo-si                  ,서귀포시      ,50       ,KR-50